<?xml version="1.0" encoding="UTF-8" standalone="no"?>
<!-- Created with Inkscape (http://www.inkscape.org/) -->

<svg
   xmlns:dc="http://purl.org/dc/elements/1.1/"
   xmlns:cc="http://creativecommons.org/ns#"
   xmlns:rdf="http://www.w3.org/1999/02/22-rdf-syntax-ns#"
   xmlns:svg="http://www.w3.org/2000/svg"
   xmlns="http://www.w3.org/2000/svg"
   xmlns:sodipodi="http://sodipodi.sourceforge.net/DTD/sodipodi-0.dtd"
   xmlns:inkscape="http://www.inkscape.org/namespaces/inkscape"
   width="685"
   height="685"
   id="svg2"
   sodipodi:version="0.32"
   inkscape:version="0.92.2 5c3e80d, 2017-08-06"
   version="1.0"
   sodipodi:docname="Underfitting.svg"
   inkscape:output_extension="org.inkscape.output.svg.inkscape">
  <defs
     id="defs4" />
  <sodipodi:namedview
     id="base"
     pagecolor="#ffffff"
     bordercolor="#666666"
     borderopacity="1.0"
     inkscape:pageopacity="0.0"
     inkscape:pageshadow="2"
     inkscape:zoom="0.49497475"
     inkscape:cx="180.8071"
     inkscape:cy="319.65334"
     inkscape:document-units="px"
     inkscape:current-layer="layer1"
     inkscape:window-width="1280"
     inkscape:window-height="725"
     inkscape:window-x="0"
     inkscape:window-y="25"
     showgrid="false"
     inkscape:window-maximized="0" />
  <metadata
     id="metadata7">
    <rdf:RDF>
      <cc:Work
         rdf:about="">
        <dc:format>image/svg+xml</dc:format>
        <dc:type
           rdf:resource="http://purl.org/dc/dcmitype/StillImage" />
        <dc:title />
      </cc:Work>
    </rdf:RDF>
  </metadata>
  <g
     inkscape:label="Capa 1"
     inkscape:groupmode="layer"
     id="layer1"
     transform="translate(8.2142859,-109.86218)">
    <rect
       style="opacity:1;fill:#ffffff;fill-opacity:1;stroke:none;stroke-width:5;stroke-miterlimit:4;stroke-dasharray:none;stroke-dashoffset:0;stroke-opacity:1"
       id="rect3134"
       width="680"
       height="680"
       x="-5.7142859"
       y="112.36218" />
    <path
       sodipodi:type="arc"
       style="opacity:1;fill:#ff0000;fill-opacity:1;stroke:none;stroke-width:5;stroke-miterlimit:4;stroke-dasharray:none;stroke-dashoffset:0;stroke-opacity:1"
       id="path2160"
       sodipodi:cx="145.71428"
       sodipodi:cy="238.07646"
       sodipodi:rx="17.142857"
       sodipodi:ry="17.142857"
       d="m 162.85714,238.07646 a 17.142857,17.142857 0 0 1 -17.14286,17.14286 17.142857,17.142857 0 0 1 -17.14286,-17.14286 17.142857,17.142857 0 0 1 17.14286,-17.14285 17.142857,17.142857 0 0 1 17.14286,17.14285 z"
       transform="matrix(0.5833333,0,0,0.5833333,27.857142,9.19853)" />
    <path
       transform="matrix(0.5833333,0,0,0.5833333,50.714285,49.19853)"
       d="m 162.85714,238.07646 a 17.142857,17.142857 0 0 1 -17.14286,17.14286 17.142857,17.142857 0 0 1 -17.14286,-17.14286 17.142857,17.142857 0 0 1 17.14286,-17.14285 17.142857,17.142857 0 0 1 17.14286,17.14285 z"
       sodipodi:ry="17.142857"
       sodipodi:rx="17.142857"
       sodipodi:cy="238.07646"
       sodipodi:cx="145.71428"
       id="path3138"
       style="opacity:1;fill:#ff0000;fill-opacity:1;stroke:none;stroke-width:5;stroke-miterlimit:4;stroke-dasharray:none;stroke-dashoffset:0;stroke-opacity:1"
       sodipodi:type="arc" />
    <path
       sodipodi:type="arc"
       style="opacity:1;fill:#ff0000;fill-opacity:1;stroke:none;stroke-width:5;stroke-miterlimit:4;stroke-dasharray:none;stroke-dashoffset:0;stroke-opacity:1"
       id="path3140"
       sodipodi:cx="145.71428"
       sodipodi:cy="238.07646"
       sodipodi:rx="17.142857"
       sodipodi:ry="17.142857"
       d="m 162.85714,238.07646 a 17.142857,17.142857 0 0 1 -17.14286,17.14286 17.142857,17.142857 0 0 1 -17.14286,-17.14286 17.142857,17.142857 0 0 1 17.14286,-17.14285 17.142857,17.142857 0 0 1 17.14286,17.14285 z"
       transform="matrix(0.5833333,0,0,0.5833333,24.999999,126.34139)" />
    <path
       transform="matrix(0.5833333,0,0,0.5833333,4.999999,94.912819)"
       d="m 162.85714,238.07646 a 17.142857,17.142857 0 0 1 -17.14286,17.14286 17.142857,17.142857 0 0 1 -17.14286,-17.14286 17.142857,17.142857 0 0 1 17.14286,-17.14285 17.142857,17.142857 0 0 1 17.14286,17.14285 z"
       sodipodi:ry="17.142857"
       sodipodi:rx="17.142857"
       sodipodi:cy="238.07646"
       sodipodi:cx="145.71428"
       id="path3142"
       style="opacity:1;fill:#ff0000;fill-opacity:1;stroke:none;stroke-width:5;stroke-miterlimit:4;stroke-dasharray:none;stroke-dashoffset:0;stroke-opacity:1"
       sodipodi:type="arc" />
    <path
       sodipodi:type="arc"
       style="opacity:1;fill:#ff0000;fill-opacity:1;stroke:none;stroke-width:5;stroke-miterlimit:4;stroke-dasharray:none;stroke-dashoffset:0;stroke-opacity:1"
       id="path3144"
       sodipodi:cx="145.71428"
       sodipodi:cy="238.07646"
       sodipodi:rx="17.142857"
       sodipodi:ry="17.142857"
       d="m 162.85714,238.07646 a 17.142857,17.142857 0 0 1 -17.14286,17.14286 17.142857,17.142857 0 0 1 -17.14286,-17.14286 17.142857,17.142857 0 0 1 17.14286,-17.14285 17.142857,17.142857 0 0 1 17.14286,17.14285 z"
       transform="matrix(0.5833333,0,0,0.5833333,-9.2857153,172.05568)" />
    <path
       transform="matrix(0.5833333,0,0,0.5833333,36.42857,212.05568)"
       d="m 162.85714,238.07646 a 17.142857,17.142857 0 0 1 -17.14286,17.14286 17.142857,17.142857 0 0 1 -17.14286,-17.14286 17.142857,17.142857 0 0 1 17.14286,-17.14285 17.142857,17.142857 0 0 1 17.14286,17.14285 z"
       sodipodi:ry="17.142857"
       sodipodi:rx="17.142857"
       sodipodi:cy="238.07646"
       sodipodi:cx="145.71428"
       id="path3146"
       style="opacity:1;fill:#ff0000;fill-opacity:1;stroke:none;stroke-width:5;stroke-miterlimit:4;stroke-dasharray:none;stroke-dashoffset:0;stroke-opacity:1"
       sodipodi:type="arc" />
    <path
       sodipodi:type="arc"
       style="opacity:1;fill:#ff0000;fill-opacity:1;stroke:none;stroke-width:5;stroke-miterlimit:4;stroke-dasharray:none;stroke-dashoffset:0;stroke-opacity:1"
       id="path3148"
       sodipodi:cx="145.71428"
       sodipodi:cy="238.07646"
       sodipodi:rx="17.142857"
       sodipodi:ry="17.142857"
       d="m 162.85714,238.07646 a 17.142857,17.142857 0 0 1 -17.14286,17.14286 17.142857,17.142857 0 0 1 -17.14286,-17.14286 17.142857,17.142857 0 0 1 17.14286,-17.14285 17.142857,17.142857 0 0 1 17.14286,17.14285 z"
       transform="matrix(0.5833333,0,0,0.5833333,61.969541,297.76997)" />
    <path
       transform="matrix(0.5833333,0,0,0.5833333,22.142856,346.3414)"
       d="m 162.85714,238.07646 a 17.142857,17.142857 0 0 1 -17.14286,17.14286 17.142857,17.142857 0 0 1 -17.14286,-17.14286 17.142857,17.142857 0 0 1 17.14286,-17.14285 17.142857,17.142857 0 0 1 17.14286,17.14285 z"
       sodipodi:ry="17.142857"
       sodipodi:rx="17.142857"
       sodipodi:cy="238.07646"
       sodipodi:cx="145.71428"
       id="path3150"
       style="opacity:1;fill:#ff0000;fill-opacity:1;stroke:none;stroke-width:5;stroke-miterlimit:4;stroke-dasharray:none;stroke-dashoffset:0;stroke-opacity:1"
       sodipodi:type="arc" />
    <path
       sodipodi:type="arc"
       style="opacity:1;fill:#ff0000;fill-opacity:1;stroke:none;stroke-width:5;stroke-miterlimit:4;stroke-dasharray:none;stroke-dashoffset:0;stroke-opacity:1"
       id="path3152"
       sodipodi:cx="145.71428"
       sodipodi:cy="238.07646"
       sodipodi:rx="17.142857"
       sodipodi:ry="17.142857"
       d="m 162.85714,238.07646 a 17.142857,17.142857 0 0 1 -17.14286,17.14286 17.142857,17.142857 0 0 1 -17.14286,-17.14286 17.142857,17.142857 0 0 1 17.14286,-17.14285 17.142857,17.142857 0 0 1 17.14286,17.14285 z"
       transform="matrix(0.5833333,0,0,0.5833333,7.8571417,334.91283)" />
    <path
       transform="matrix(0.5833333,0,0,0.5833333,-0.7142869,309.19854)"
       d="m 162.85714,238.07646 a 17.142857,17.142857 0 0 1 -17.14286,17.14286 17.142857,17.142857 0 0 1 -17.14286,-17.14286 17.142857,17.142857 0 0 1 17.14286,-17.14285 17.142857,17.142857 0 0 1 17.14286,17.14285 z"
       sodipodi:ry="17.142857"
       sodipodi:rx="17.142857"
       sodipodi:cy="238.07646"
       sodipodi:cx="145.71428"
       id="path3154"
       style="opacity:1;fill:#ff0000;fill-opacity:1;stroke:none;stroke-width:5;stroke-miterlimit:4;stroke-dasharray:none;stroke-dashoffset:0;stroke-opacity:1"
       sodipodi:type="arc" />
    <path
       sodipodi:type="arc"
       style="opacity:1;fill:#ff0000;fill-opacity:1;stroke:none;stroke-width:5;stroke-miterlimit:4;stroke-dasharray:none;stroke-dashoffset:0;stroke-opacity:1"
       id="path3156"
       sodipodi:cx="145.71428"
       sodipodi:cy="238.07646"
       sodipodi:rx="17.142857"
       sodipodi:ry="17.142857"
       d="m 162.85714,238.07646 a 17.142857,17.142857 0 0 1 -17.14286,17.14286 17.142857,17.142857 0 0 1 -17.14286,-17.14286 17.142857,17.142857 0 0 1 17.14286,-17.14285 17.142857,17.142857 0 0 1 17.14286,17.14285 z"
       transform="matrix(0.5833333,0,0,0.5833333,-23.57143,272.05568)" />
    <path
       transform="matrix(0.5833333,0,0,0.5833333,-49.285716,334.91282)"
       d="m 162.85714,238.07646 a 17.142857,17.142857 0 0 1 -17.14286,17.14286 17.142857,17.142857 0 0 1 -17.14286,-17.14286 17.142857,17.142857 0 0 1 17.14286,-17.14285 17.142857,17.142857 0 0 1 17.14286,17.14285 z"
       sodipodi:ry="17.142857"
       sodipodi:rx="17.142857"
       sodipodi:cy="238.07646"
       sodipodi:cx="145.71428"
       id="path3158"
       style="opacity:1;fill:#ff0000;fill-opacity:1;stroke:none;stroke-width:5;stroke-miterlimit:4;stroke-dasharray:none;stroke-dashoffset:0;stroke-opacity:1"
       sodipodi:type="arc" />
    <path
       sodipodi:type="arc"
       style="opacity:1;fill:#ff0000;fill-opacity:1;stroke:none;stroke-width:5;stroke-miterlimit:4;stroke-dasharray:none;stroke-dashoffset:0;stroke-opacity:1"
       id="path3160"
       sodipodi:cx="145.71428"
       sodipodi:cy="238.07646"
       sodipodi:rx="17.142857"
       sodipodi:ry="17.142857"
       d="m 162.85714,238.07646 a 17.142857,17.142857 0 0 1 -17.14286,17.14286 17.142857,17.142857 0 0 1 -17.14286,-17.14286 17.142857,17.142857 0 0 1 17.14286,-17.14285 17.142857,17.142857 0 0 1 17.14286,17.14285 z"
       transform="matrix(0.5833333,0,0,0.5833333,22.142855,192.05568)" />
    <path
       transform="matrix(0.5833333,0,0,0.5833333,-17.857145,226.34139)"
       d="m 162.85714,238.07646 a 17.142857,17.142857 0 0 1 -17.14286,17.14286 17.142857,17.142857 0 0 1 -17.14286,-17.14286 17.142857,17.142857 0 0 1 17.14286,-17.14285 17.142857,17.142857 0 0 1 17.14286,17.14285 z"
       sodipodi:ry="17.142857"
       sodipodi:rx="17.142857"
       sodipodi:cy="238.07646"
       sodipodi:cx="145.71428"
       id="path3162"
       style="opacity:1;fill:#ff0000;fill-opacity:1;stroke:none;stroke-width:5;stroke-miterlimit:4;stroke-dasharray:none;stroke-dashoffset:0;stroke-opacity:1"
       sodipodi:type="arc" />
    <path
       sodipodi:type="arc"
       style="opacity:1;fill:#ff0000;fill-opacity:1;stroke:none;stroke-width:5;stroke-miterlimit:4;stroke-dasharray:none;stroke-dashoffset:0;stroke-opacity:1"
       id="path3164"
       sodipodi:cx="145.71428"
       sodipodi:cy="238.07646"
       sodipodi:rx="17.142857"
       sodipodi:ry="17.142857"
       d="m 162.85714,238.07646 a 17.142857,17.142857 0 0 1 -17.14286,17.14286 17.142857,17.142857 0 0 1 -17.14286,-17.14286 17.142857,17.142857 0 0 1 17.14286,-17.14285 17.142857,17.142857 0 0 1 17.14286,17.14285 z"
       transform="matrix(0.5833333,0,0,0.5833333,-15.000002,343.48425)" />
    <path
       transform="matrix(0.5833333,0,0,0.5833333,2.1428551,406.34139)"
       d="m 162.85714,238.07646 a 17.142857,17.142857 0 0 1 -17.14286,17.14286 17.142857,17.142857 0 0 1 -17.14286,-17.14286 17.142857,17.142857 0 0 1 17.14286,-17.14285 17.142857,17.142857 0 0 1 17.14286,17.14285 z"
       sodipodi:ry="17.142857"
       sodipodi:rx="17.142857"
       sodipodi:cy="238.07646"
       sodipodi:cx="145.71428"
       id="path3166"
       style="opacity:1;fill:#ff0000;fill-opacity:1;stroke:none;stroke-width:5;stroke-miterlimit:4;stroke-dasharray:none;stroke-dashoffset:0;stroke-opacity:1"
       sodipodi:type="arc" />
    <path
       sodipodi:type="arc"
       style="opacity:1;fill:#ff0000;fill-opacity:1;stroke:none;stroke-width:5;stroke-miterlimit:4;stroke-dasharray:none;stroke-dashoffset:0;stroke-opacity:1"
       id="path3168"
       sodipodi:cx="145.71428"
       sodipodi:cy="238.07646"
       sodipodi:rx="17.142857"
       sodipodi:ry="17.142857"
       d="m 162.85714,238.07646 a 17.142857,17.142857 0 0 1 -17.14286,17.14286 17.142857,17.142857 0 0 1 -17.14286,-17.14286 17.142857,17.142857 0 0 1 17.14286,-17.14285 17.142857,17.142857 0 0 1 17.14286,17.14285 z"
       transform="matrix(0.5833333,0,0,0.5833333,-20.714288,392.05568)" />
    <path
       transform="matrix(0.5833333,0,0,0.5833333,67.857141,369.19854)"
       d="m 162.85714,238.07646 a 17.142857,17.142857 0 0 1 -17.14286,17.14286 17.142857,17.142857 0 0 1 -17.14286,-17.14286 17.142857,17.142857 0 0 1 17.14286,-17.14285 17.142857,17.142857 0 0 1 17.14286,17.14285 z"
       sodipodi:ry="17.142857"
       sodipodi:rx="17.142857"
       sodipodi:cy="238.07646"
       sodipodi:cx="145.71428"
       id="path3170"
       style="opacity:1;fill:#ff0000;fill-opacity:1;stroke:none;stroke-width:5;stroke-miterlimit:4;stroke-dasharray:none;stroke-dashoffset:0;stroke-opacity:1"
       sodipodi:type="arc" />
    <path
       sodipodi:type="arc"
       style="opacity:1;fill:#ff0000;fill-opacity:1;stroke:none;stroke-width:5;stroke-miterlimit:4;stroke-dasharray:none;stroke-dashoffset:0;stroke-opacity:1"
       id="path3172"
       sodipodi:cx="145.71428"
       sodipodi:cy="238.07646"
       sodipodi:rx="17.142857"
       sodipodi:ry="17.142857"
       d="m 162.85714,238.07646 a 17.142857,17.142857 0 0 1 -17.14286,17.14286 17.142857,17.142857 0 0 1 -17.14286,-17.14286 17.142857,17.142857 0 0 1 17.14286,-17.14285 17.142857,17.142857 0 0 1 17.14286,17.14285 z"
       transform="matrix(0.5833333,0,0,0.5833333,44.999998,432.05568)" />
    <path
       transform="matrix(0.5833333,0,0,0.5833333,102.14286,474.91282)"
       d="m 162.85714,238.07646 a 17.142857,17.142857 0 0 1 -17.14286,17.14286 17.142857,17.142857 0 0 1 -17.14286,-17.14286 17.142857,17.142857 0 0 1 17.14286,-17.14285 17.142857,17.142857 0 0 1 17.14286,17.14285 z"
       sodipodi:ry="17.142857"
       sodipodi:rx="17.142857"
       sodipodi:cy="238.07646"
       sodipodi:cx="145.71428"
       id="path3174"
       style="opacity:1;fill:#ff0000;fill-opacity:1;stroke:none;stroke-width:5;stroke-miterlimit:4;stroke-dasharray:none;stroke-dashoffset:0;stroke-opacity:1"
       sodipodi:type="arc" />
    <path
       sodipodi:type="arc"
       style="opacity:1;fill:#ff0000;fill-opacity:1;stroke:none;stroke-width:5;stroke-miterlimit:4;stroke-dasharray:none;stroke-dashoffset:0;stroke-opacity:1"
       id="path3176"
       sodipodi:cx="145.71428"
       sodipodi:cy="238.07646"
       sodipodi:rx="17.142857"
       sodipodi:ry="17.142857"
       d="m 162.85714,238.07646 a 17.142857,17.142857 0 0 1 -17.14286,17.14286 17.142857,17.142857 0 0 1 -17.14286,-17.14286 17.142857,17.142857 0 0 1 17.14286,-17.14285 17.142857,17.142857 0 0 1 17.14286,17.14285 z"
       transform="matrix(0.5833333,0,0,0.5833333,53.655538,474.91282)" />
    <path
       transform="matrix(0.5833333,0,0,0.5833333,65.777369,448.64885)"
       d="m 162.85714,238.07646 a 17.142857,17.142857 0 0 1 -17.14286,17.14286 17.142857,17.142857 0 0 1 -17.14286,-17.14286 17.142857,17.142857 0 0 1 17.14286,-17.14285 17.142857,17.142857 0 0 1 17.14286,17.14285 z"
       sodipodi:ry="17.142857"
       sodipodi:rx="17.142857"
       sodipodi:cy="238.07646"
       sodipodi:cx="145.71428"
       id="path3178"
       style="opacity:1;fill:#ff0000;fill-opacity:1;stroke:none;stroke-width:5;stroke-miterlimit:4;stroke-dasharray:none;stroke-dashoffset:0;stroke-opacity:1"
       sodipodi:type="arc" />
    <path
       sodipodi:type="arc"
       style="opacity:1;fill:#ff0000;fill-opacity:1;stroke:none;stroke-width:5;stroke-miterlimit:4;stroke-dasharray:none;stroke-dashoffset:0;stroke-opacity:1"
       id="path3180"
       sodipodi:cx="145.71428"
       sodipodi:cy="238.07646"
       sodipodi:rx="17.142857"
       sodipodi:ry="17.142857"
       d="m 162.85714,238.07646 a 17.142857,17.142857 0 0 1 -17.14286,17.14286 17.142857,17.142857 0 0 1 -17.14286,-17.14286 17.142857,17.142857 0 0 1 17.14286,-17.14285 17.142857,17.142857 0 0 1 17.14286,17.14285 z"
       transform="matrix(0.5833333,0,0,0.5833333,67.797673,517.33922)" />
    <path
       transform="matrix(0.5833333,0,0,0.5833333,3.1479101,509.258)"
       d="m 162.85714,238.07646 a 17.142857,17.142857 0 0 1 -17.14286,17.14286 17.142857,17.142857 0 0 1 -17.14286,-17.14286 17.142857,17.142857 0 0 1 17.14286,-17.14285 17.142857,17.142857 0 0 1 17.14286,17.14285 z"
       sodipodi:ry="17.142857"
       sodipodi:rx="17.142857"
       sodipodi:cy="238.07646"
       sodipodi:cx="145.71428"
       id="path3182"
       style="opacity:1;fill:#ff0000;fill-opacity:1;stroke:none;stroke-width:5;stroke-miterlimit:4;stroke-dasharray:none;stroke-dashoffset:0;stroke-opacity:1"
       sodipodi:type="arc" />
    <path
       sodipodi:type="arc"
       style="opacity:1;fill:#ff0000;fill-opacity:1;stroke:none;stroke-width:5;stroke-miterlimit:4;stroke-dasharray:none;stroke-dashoffset:0;stroke-opacity:1"
       id="path3184"
       sodipodi:cx="145.71428"
       sodipodi:cy="238.07646"
       sodipodi:rx="17.142857"
       sodipodi:ry="17.142857"
       d="m 162.85714,238.07646 a 17.142857,17.142857 0 0 1 -17.14286,17.14286 17.142857,17.142857 0 0 1 -17.14286,-17.14286 17.142857,17.142857 0 0 1 17.14286,-17.14285 17.142857,17.142857 0 0 1 17.14286,17.14285 z"
       transform="matrix(0.5833333,0,0,0.5833333,1.127605,460.77068)" />
    <path
       transform="matrix(0.5833333,0,0,0.5833333,-33.217582,464.81129)"
       d="m 162.85714,238.07646 a 17.142857,17.142857 0 0 1 -17.14286,17.14286 17.142857,17.142857 0 0 1 -17.14286,-17.14286 17.142857,17.142857 0 0 1 17.14286,-17.14285 17.142857,17.142857 0 0 1 17.14286,17.14285 z"
       sodipodi:ry="17.142857"
       sodipodi:rx="17.142857"
       sodipodi:cy="238.07646"
       sodipodi:cx="145.71428"
       id="path3186"
       style="opacity:1;fill:#ff0000;fill-opacity:1;stroke:none;stroke-width:5;stroke-miterlimit:4;stroke-dasharray:none;stroke-dashoffset:0;stroke-opacity:1"
       sodipodi:type="arc" />
    <path
       sodipodi:type="arc"
       style="opacity:1;fill:#ff0000;fill-opacity:1;stroke:none;stroke-width:5;stroke-miterlimit:4;stroke-dasharray:none;stroke-dashoffset:0;stroke-opacity:1"
       id="path3188"
       sodipodi:cx="145.71428"
       sodipodi:cy="238.07646"
       sodipodi:rx="17.142857"
       sodipodi:ry="17.142857"
       d="m 162.85714,238.07646 a 17.142857,17.142857 0 0 1 -17.14286,17.14286 17.142857,17.142857 0 0 1 -17.14286,-17.14286 17.142857,17.142857 0 0 1 17.14286,-17.14285 17.142857,17.142857 0 0 1 17.14286,17.14285 z"
       transform="matrix(0.5833333,0,0,0.5833333,-55.440938,418.34427)" />
    <path
       transform="matrix(0.5833333,0,0,0.5833333,-39.278497,109.23759)"
       d="m 162.85714,238.07646 a 17.142857,17.142857 0 0 1 -17.14286,17.14286 17.142857,17.142857 0 0 1 -17.14286,-17.14286 17.142857,17.142857 0 0 1 17.14286,-17.14285 17.142857,17.142857 0 0 1 17.14286,17.14285 z"
       sodipodi:ry="17.142857"
       sodipodi:rx="17.142857"
       sodipodi:cy="238.07646"
       sodipodi:cx="145.71428"
       id="path3190"
       style="opacity:1;fill:#ff0000;fill-opacity:1;stroke:none;stroke-width:5;stroke-miterlimit:4;stroke-dasharray:none;stroke-dashoffset:0;stroke-opacity:1"
       sodipodi:type="arc" />
    <path
       sodipodi:type="arc"
       style="opacity:1;fill:#ff0000;fill-opacity:1;stroke:none;stroke-width:5;stroke-miterlimit:4;stroke-dasharray:none;stroke-dashoffset:0;stroke-opacity:1"
       id="path3192"
       sodipodi:cx="145.71428"
       sodipodi:cy="238.07646"
       sodipodi:rx="17.142857"
       sodipodi:ry="17.142857"
       d="m 162.85714,238.07646 a 17.142857,17.142857 0 0 1 -17.14286,17.14286 17.142857,17.142857 0 0 1 -17.14286,-17.14286 17.142857,17.142857 0 0 1 17.14286,-17.14285 17.142857,17.142857 0 0 1 17.14286,17.14285 z"
       transform="matrix(0.5833333,0,0,0.5833333,-49.380022,167.82644)" />
    <path
       transform="matrix(0.5833333,0,0,0.5833333,-51.400327,58.729965)"
       d="m 162.85714,238.07646 a 17.142857,17.142857 0 0 1 -17.14286,17.14286 17.142857,17.142857 0 0 1 -17.14286,-17.14286 17.142857,17.142857 0 0 1 17.14286,-17.14285 17.142857,17.142857 0 0 1 17.14286,17.14285 z"
       sodipodi:ry="17.142857"
       sodipodi:rx="17.142857"
       sodipodi:cy="238.07646"
       sodipodi:cx="145.71428"
       id="path3194"
       style="opacity:1;fill:#ff0000;fill-opacity:1;stroke:none;stroke-width:5;stroke-miterlimit:4;stroke-dasharray:none;stroke-dashoffset:0;stroke-opacity:1"
       sodipodi:type="arc" />
    <path
       sodipodi:type="arc"
       style="opacity:1;fill:#ff0000;fill-opacity:1;stroke:none;stroke-width:5;stroke-miterlimit:4;stroke-dasharray:none;stroke-dashoffset:0;stroke-opacity:1"
       id="path3196"
       sodipodi:cx="145.71428"
       sodipodi:cy="238.07646"
       sodipodi:rx="17.142857"
       sodipodi:ry="17.142857"
       d="m 162.85714,238.07646 a 17.142857,17.142857 0 0 1 -17.14286,17.14286 17.142857,17.142857 0 0 1 -17.14286,-17.14286 17.142857,17.142857 0 0 1 17.14286,-17.14285 17.142857,17.142857 0 0 1 17.14286,17.14285 z"
       transform="matrix(0.5833333,0,0,0.5833333,-0.8926998,52.66905)" />
    <path
       transform="matrix(0.5833333,0,0,0.5833333,182.95506,450.66915)"
       d="m 162.85714,238.07646 a 17.142857,17.142857 0 0 1 -17.14286,17.14286 17.142857,17.142857 0 0 1 -17.14286,-17.14286 17.142857,17.142857 0 0 1 17.14286,-17.14285 17.142857,17.142857 0 0 1 17.14286,17.14285 z"
       sodipodi:ry="17.142857"
       sodipodi:rx="17.142857"
       sodipodi:cy="238.07646"
       sodipodi:cx="145.71428"
       id="path3198"
       style="opacity:1;fill:#ff0000;fill-opacity:1;stroke:none;stroke-width:5;stroke-miterlimit:4;stroke-dasharray:none;stroke-dashoffset:0;stroke-opacity:1"
       sodipodi:type="arc" />
    <path
       sodipodi:type="arc"
       style="opacity:1;fill:#ff0000;fill-opacity:1;stroke:none;stroke-width:5;stroke-miterlimit:4;stroke-dasharray:none;stroke-dashoffset:0;stroke-opacity:1"
       id="path3200"
       sodipodi:cx="145.71428"
       sodipodi:cy="238.07646"
       sodipodi:rx="17.142857"
       sodipodi:ry="17.142857"
       d="m 162.85714,238.07646 a 17.142857,17.142857 0 0 1 -17.14286,17.14286 17.142857,17.142857 0 0 1 -17.14286,-17.14286 17.142857,17.142857 0 0 1 17.14286,-17.14285 17.142857,17.142857 0 0 1 17.14286,17.14285 z"
       transform="matrix(0.5833333,0,0,0.5833333,130.42713,515.31891)" />
    <path
       transform="matrix(0.5833333,0,0,0.5833333,130.42713,515.31891)"
       d="m 162.85714,238.07646 a 17.142857,17.142857 0 0 1 -17.14286,17.14286 17.142857,17.142857 0 0 1 -17.14286,-17.14286 17.142857,17.142857 0 0 1 17.14286,-17.14285 17.142857,17.142857 0 0 1 17.14286,17.14285 z"
       sodipodi:ry="17.142857"
       sodipodi:rx="17.142857"
       sodipodi:cy="238.07646"
       sodipodi:cx="145.71428"
       id="path3202"
       style="opacity:1;fill:#ff0000;fill-opacity:1;stroke:none;stroke-width:5;stroke-miterlimit:4;stroke-dasharray:none;stroke-dashoffset:0;stroke-opacity:1"
       sodipodi:type="arc" />
    <path
       sodipodi:type="arc"
       style="opacity:1;fill:#ff0000;fill-opacity:1;stroke:none;stroke-width:5;stroke-miterlimit:4;stroke-dasharray:none;stroke-dashoffset:0;stroke-opacity:1"
       id="path3204"
       sodipodi:cx="145.71428"
       sodipodi:cy="238.07646"
       sodipodi:rx="17.142857"
       sodipodi:ry="17.142857"
       d="m 162.85714,238.07646 a 17.142857,17.142857 0 0 1 -17.14286,17.14286 17.142857,17.142857 0 0 1 -17.14286,-17.14286 17.142857,17.142857 0 0 1 17.14286,-17.14285 17.142857,17.142857 0 0 1 17.14286,17.14285 z"
       transform="matrix(0.5833333,0,0,0.5833333,102.14286,549.6641)" />
    <path
       transform="matrix(0.5833333,0,0,0.5833333,160.73171,535.52196)"
       d="m 162.85714,238.07646 a 17.142857,17.142857 0 0 1 -17.14286,17.14286 17.142857,17.142857 0 0 1 -17.14286,-17.14286 17.142857,17.142857 0 0 1 17.14286,-17.14285 17.142857,17.142857 0 0 1 17.14286,17.14285 z"
       sodipodi:ry="17.142857"
       sodipodi:rx="17.142857"
       sodipodi:cy="238.07646"
       sodipodi:cx="145.71428"
       id="path3206"
       style="opacity:1;fill:#ff0000;fill-opacity:1;stroke:none;stroke-width:5;stroke-miterlimit:4;stroke-dasharray:none;stroke-dashoffset:0;stroke-opacity:1"
       sodipodi:type="arc" />
    <path
       sodipodi:type="arc"
       style="opacity:1;fill:#ff0000;fill-opacity:1;stroke:none;stroke-width:5;stroke-miterlimit:4;stroke-dasharray:none;stroke-dashoffset:0;stroke-opacity:1"
       id="path3208"
       sodipodi:cx="145.71428"
       sodipodi:cy="238.07646"
       sodipodi:rx="17.142857"
       sodipodi:ry="17.142857"
       d="m 162.85714,238.07646 a 17.142857,17.142857 0 0 1 -17.14286,17.14286 17.142857,17.142857 0 0 1 -17.14286,-17.14286 17.142857,17.142857 0 0 1 17.14286,-17.14285 17.142857,17.142857 0 0 1 17.14286,17.14285 z"
       transform="matrix(0.5833333,0,0,0.5833333,174.87385,571.88745)" />
    <path
       transform="matrix(0.5833333,0,0,0.5833333,290.03124,446.62853)"
       d="m 162.85714,238.07646 a 17.142857,17.142857 0 0 1 -17.14286,17.14286 17.142857,17.142857 0 0 1 -17.14286,-17.14286 17.142857,17.142857 0 0 1 17.14286,-17.14285 17.142857,17.142857 0 0 1 17.14286,17.14285 z"
       sodipodi:ry="17.142857"
       sodipodi:rx="17.142857"
       sodipodi:cy="238.07646"
       sodipodi:cx="145.71428"
       id="path3210"
       style="opacity:1;fill:#ff0000;fill-opacity:1;stroke:none;stroke-width:5;stroke-miterlimit:4;stroke-dasharray:none;stroke-dashoffset:0;stroke-opacity:1"
       sodipodi:type="arc" />
    <path
       sodipodi:type="arc"
       style="opacity:1;fill:#ff0000;fill-opacity:1;stroke:none;stroke-width:5;stroke-miterlimit:4;stroke-dasharray:none;stroke-dashoffset:0;stroke-opacity:1"
       id="path3212"
       sodipodi:cx="145.71428"
       sodipodi:cy="238.07646"
       sodipodi:rx="17.142857"
       sodipodi:ry="17.142857"
       d="m 162.85714,238.07646 a 17.142857,17.142857 0 0 1 -17.14286,17.14286 17.142857,17.142857 0 0 1 -17.14286,-17.14286 17.142857,17.142857 0 0 1 17.14286,-17.14285 17.142857,17.142857 0 0 1 17.14286,17.14285 z"
       transform="matrix(0.5833333,0,0,0.5833333,227.40178,523.40012)" />
    <path
       transform="matrix(0.5833333,0,0,0.5833333,213.25964,553.7047)"
       d="m 162.85714,238.07646 a 17.142857,17.142857 0 0 1 -17.14286,17.14286 17.142857,17.142857 0 0 1 -17.14286,-17.14286 17.142857,17.142857 0 0 1 17.14286,-17.14285 17.142857,17.142857 0 0 1 17.14286,17.14285 z"
       sodipodi:ry="17.142857"
       sodipodi:rx="17.142857"
       sodipodi:cy="238.07646"
       sodipodi:cx="145.71428"
       id="path3214"
       style="opacity:1;fill:#ff0000;fill-opacity:1;stroke:none;stroke-width:5;stroke-miterlimit:4;stroke-dasharray:none;stroke-dashoffset:0;stroke-opacity:1"
       sodipodi:type="arc" />
    <path
       sodipodi:type="arc"
       style="opacity:1;fill:#ff0000;fill-opacity:1;stroke:none;stroke-width:5;stroke-miterlimit:4;stroke-dasharray:none;stroke-dashoffset:0;stroke-opacity:1"
       id="path3216"
       sodipodi:cx="145.71428"
       sodipodi:cy="238.07646"
       sodipodi:rx="17.142857"
       sodipodi:ry="17.142857"
       d="m 162.85714,238.07646 a 17.142857,17.142857 0 0 1 -17.14286,17.14286 17.142857,17.142857 0 0 1 -17.14286,-17.14286 17.142857,17.142857 0 0 1 17.14286,-17.14285 17.142857,17.142857 0 0 1 17.14286,17.14285 z"
       transform="matrix(0.5833333,0,0,0.5833333,219.32056,586.02958)" />
    <path
       transform="matrix(0.5833333,0,0,0.5833333,128.40683,596.13111)"
       d="m 162.85714,238.07646 a 17.142857,17.142857 0 0 1 -17.14286,17.14286 17.142857,17.142857 0 0 1 -17.14286,-17.14286 17.142857,17.142857 0 0 1 17.14286,-17.14285 17.142857,17.142857 0 0 1 17.14286,17.14285 z"
       sodipodi:ry="17.142857"
       sodipodi:rx="17.142857"
       sodipodi:cy="238.07646"
       sodipodi:cx="145.71428"
       id="path3218"
       style="opacity:1;fill:#ff0000;fill-opacity:1;stroke:none;stroke-width:5;stroke-miterlimit:4;stroke-dasharray:none;stroke-dashoffset:0;stroke-opacity:1"
       sodipodi:type="arc" />
    <path
       sodipodi:type="arc"
       style="opacity:1;fill:#ff0000;fill-opacity:1;stroke:none;stroke-width:5;stroke-miterlimit:4;stroke-dasharray:none;stroke-dashoffset:0;stroke-opacity:1"
       id="path3220"
       sodipodi:cx="145.71428"
       sodipodi:cy="238.07646"
       sodipodi:rx="17.142857"
       sodipodi:ry="17.142857"
       d="m 162.85714,238.07646 a 17.142857,17.142857 0 0 1 -17.14286,17.14286 17.142857,17.142857 0 0 1 -17.14286,-17.14286 17.142857,17.142857 0 0 1 17.14286,-17.14285 17.142857,17.142857 0 0 1 17.14286,17.14285 z"
       transform="matrix(0.5833333,0,0,0.5833333,134.46775,557.74531)" />
    <path
       transform="matrix(0.5833333,0,0,0.5833333,65.777377,588.04989)"
       d="m 162.85714,238.07646 a 17.142857,17.142857 0 0 1 -17.14286,17.14286 17.142857,17.142857 0 0 1 -17.14286,-17.14286 17.142857,17.142857 0 0 1 17.14286,-17.14285 17.142857,17.142857 0 0 1 17.14286,17.14285 z"
       sodipodi:ry="17.142857"
       sodipodi:rx="17.142857"
       sodipodi:cy="238.07646"
       sodipodi:cx="145.71428"
       id="path3222"
       style="opacity:1;fill:#ff0000;fill-opacity:1;stroke:none;stroke-width:5;stroke-miterlimit:4;stroke-dasharray:none;stroke-dashoffset:0;stroke-opacity:1"
       sodipodi:type="arc" />
    <path
       sodipodi:type="arc"
       style="opacity:1;fill:#ff0000;fill-opacity:1;stroke:none;stroke-width:5;stroke-miterlimit:4;stroke-dasharray:none;stroke-dashoffset:0;stroke-opacity:1"
       id="path3224"
       sodipodi:cx="145.71428"
       sodipodi:cy="238.07646"
       sodipodi:rx="17.142857"
       sodipodi:ry="17.142857"
       d="m 162.85714,238.07646 a 17.142857,17.142857 0 0 1 -17.14286,17.14286 17.142857,17.142857 0 0 1 -17.14286,-17.14286 17.142857,17.142857 0 0 1 17.14286,-17.14285 17.142857,17.142857 0 0 1 17.14286,17.14285 z"
       transform="matrix(0.5833333,0,0,0.5833333,45.574326,543.60318)" />
    <path
       transform="matrix(0.5833333,0,0,0.5833333,-4.9333012,577.94837)"
       d="m 162.85714,238.07646 a 17.142857,17.142857 0 0 1 -17.14286,17.14286 17.142857,17.142857 0 0 1 -17.14286,-17.14286 17.142857,17.142857 0 0 1 17.14286,-17.14285 17.142857,17.142857 0 0 1 17.14286,17.14285 z"
       sodipodi:ry="17.142857"
       sodipodi:rx="17.142857"
       sodipodi:cy="238.07646"
       sodipodi:cx="145.71428"
       id="path3226"
       style="opacity:1;fill:#ff0000;fill-opacity:1;stroke:none;stroke-width:5;stroke-miterlimit:4;stroke-dasharray:none;stroke-dashoffset:0;stroke-opacity:1"
       sodipodi:type="arc" />
    <path
       sodipodi:type="arc"
       style="opacity:1;fill:#ff0000;fill-opacity:1;stroke:none;stroke-width:5;stroke-miterlimit:4;stroke-dasharray:none;stroke-dashoffset:0;stroke-opacity:1"
       id="path3234"
       sodipodi:cx="145.71428"
       sodipodi:cy="238.07646"
       sodipodi:rx="17.142857"
       sodipodi:ry="17.142857"
       d="m 162.85714,238.07646 a 17.142857,17.142857 0 0 1 -17.14286,17.14286 17.142857,17.142857 0 0 1 -17.14286,-17.14286 17.142857,17.142857 0 0 1 17.14286,-17.14285 17.142857,17.142857 0 0 1 17.14286,17.14285 z"
       transform="matrix(0.5833333,0,0,0.5833333,-7.9637588,548.65395)" />
    <path
       transform="matrix(0.5833333,0,0,0.5833333,-39.278488,532.49151)"
       d="m 162.85714,238.07646 a 17.142857,17.142857 0 0 1 -17.14286,17.14286 17.142857,17.142857 0 0 1 -17.14286,-17.14286 17.142857,17.142857 0 0 1 17.14286,-17.14285 17.142857,17.142857 0 0 1 17.14286,17.14285 z"
       sodipodi:ry="17.142857"
       sodipodi:rx="17.142857"
       sodipodi:cy="238.07646"
       sodipodi:cx="145.71428"
       id="path3236"
       style="opacity:1;fill:#ff0000;fill-opacity:1;stroke:none;stroke-width:5;stroke-miterlimit:4;stroke-dasharray:none;stroke-dashoffset:0;stroke-opacity:1"
       sodipodi:type="arc" />
    <path
       sodipodi:type="arc"
       style="opacity:1;fill:#ff0000;fill-opacity:1;stroke:none;stroke-width:5;stroke-miterlimit:4;stroke-dasharray:none;stroke-dashoffset:0;stroke-opacity:1"
       id="path3238"
       sodipodi:cx="145.71428"
       sodipodi:cy="238.07646"
       sodipodi:rx="17.142857"
       sodipodi:ry="17.142857"
       d="m 162.85714,238.07646 a 17.142857,17.142857 0 0 1 -17.14286,17.14286 17.142857,17.142857 0 0 1 -17.14286,-17.14286 17.142857,17.142857 0 0 1 17.14286,-17.14285 17.142857,17.142857 0 0 1 17.14286,17.14285 z"
       transform="matrix(0.5833333,0,0,0.5833333,-61.501844,566.8367)" />
    <path
       transform="matrix(0.5833333,0,0,0.5833333,-35.237878,482.99404)"
       d="m 162.85714,238.07646 a 17.142857,17.142857 0 0 1 -17.14286,17.14286 17.142857,17.142857 0 0 1 -17.14286,-17.14286 17.142857,17.142857 0 0 1 17.14286,-17.14285 17.142857,17.142857 0 0 1 17.14286,17.14285 z"
       sodipodi:ry="17.142857"
       sodipodi:rx="17.142857"
       sodipodi:cy="238.07646"
       sodipodi:cx="145.71428"
       id="path3240"
       style="opacity:1;fill:#ff0000;fill-opacity:1;stroke:none;stroke-width:5;stroke-miterlimit:4;stroke-dasharray:none;stroke-dashoffset:0;stroke-opacity:1"
       sodipodi:type="arc" />
    <path
       sodipodi:type="arc"
       style="opacity:1;fill:#ff0000;fill-opacity:1;stroke:none;stroke-width:5;stroke-miterlimit:4;stroke-dasharray:none;stroke-dashoffset:0;stroke-opacity:1"
       id="path3242"
       sodipodi:cx="145.71428"
       sodipodi:cy="238.07646"
       sodipodi:rx="17.142857"
       sodipodi:ry="17.142857"
       d="m 162.85714,238.07646 a 17.142857,17.142857 0 0 1 -17.14286,17.14286 17.142857,17.142857 0 0 1 -17.14286,-17.14286 17.142857,17.142857 0 0 1 17.14286,-17.14285 17.142857,17.142857 0 0 1 17.14286,17.14285 z"
       transform="matrix(0.5833333,0,0,0.5833333,261.74697,606.23265)" />
    <path
       transform="matrix(0.5833333,0,0,0.5833333,294.07185,571.88746)"
       d="m 162.85714,238.07646 a 17.142857,17.142857 0 0 1 -17.14286,17.14286 17.142857,17.142857 0 0 1 -17.14286,-17.14286 17.142857,17.142857 0 0 1 17.14286,-17.14285 17.142857,17.142857 0 0 1 17.14286,17.14285 z"
       sodipodi:ry="17.142857"
       sodipodi:rx="17.142857"
       sodipodi:cy="238.07646"
       sodipodi:cx="145.71428"
       id="path3244"
       style="opacity:1;fill:#ff0000;fill-opacity:1;stroke:none;stroke-width:5;stroke-miterlimit:4;stroke-dasharray:none;stroke-dashoffset:0;stroke-opacity:1"
       sodipodi:type="arc" />
    <path
       sodipodi:type="arc"
       style="opacity:1;fill:#ff0000;fill-opacity:1;stroke:none;stroke-width:5;stroke-miterlimit:4;stroke-dasharray:none;stroke-dashoffset:0;stroke-opacity:1"
       id="path3246"
       sodipodi:cx="145.71428"
       sodipodi:cy="238.07646"
       sodipodi:rx="17.142857"
       sodipodi:ry="17.142857"
       d="m 162.85714,238.07646 a 17.142857,17.142857 0 0 1 -17.14286,17.14286 17.142857,17.142857 0 0 1 -17.14286,-17.14286 17.142857,17.142857 0 0 1 17.14286,-17.14285 17.142857,17.142857 0 0 1 17.14286,17.14285 z"
       transform="matrix(0.5833333,0,0,0.5833333,262.75712,563.80624)" />
    <path
       transform="matrix(0.5833333,0,0,0.5833333,323.36627,538.55243)"
       d="m 162.85714,238.07646 a 17.142857,17.142857 0 0 1 -17.14286,17.14286 17.142857,17.142857 0 0 1 -17.14286,-17.14286 17.142857,17.142857 0 0 1 17.14286,-17.14285 17.142857,17.142857 0 0 1 17.14286,17.14285 z"
       sodipodi:ry="17.142857"
       sodipodi:rx="17.142857"
       sodipodi:cy="238.07646"
       sodipodi:cx="145.71428"
       id="path3248"
       style="opacity:1;fill:#ff0000;fill-opacity:1;stroke:none;stroke-width:5;stroke-miterlimit:4;stroke-dasharray:none;stroke-dashoffset:0;stroke-opacity:1"
       sodipodi:type="arc" />
    <path
       sodipodi:type="arc"
       style="opacity:1;fill:#ff0000;fill-opacity:1;stroke:none;stroke-width:5;stroke-miterlimit:4;stroke-dasharray:none;stroke-dashoffset:0;stroke-opacity:1"
       id="path3250"
       sodipodi:cx="145.71428"
       sodipodi:cy="238.07646"
       sodipodi:rx="17.142857"
       sodipodi:ry="17.142857"
       d="m 162.85714,238.07646 a 17.142857,17.142857 0 0 1 -17.14286,17.14286 17.142857,17.142857 0 0 1 -17.14286,-17.14286 17.142857,17.142857 0 0 1 17.14286,-17.14285 17.142857,17.142857 0 0 1 17.14286,17.14285 z"
       transform="matrix(0.5833333,0,0,0.5833333,335.4881,595.12097)" />
    <path
       transform="matrix(0.5833333,0,0,0.5833333,377.91451,617.34433)"
       d="m 162.85714,238.07646 a 17.142857,17.142857 0 0 1 -17.14286,17.14286 17.142857,17.142857 0 0 1 -17.14286,-17.14286 17.142857,17.142857 0 0 1 17.14286,-17.14285 17.142857,17.142857 0 0 1 17.14286,17.14285 z"
       sodipodi:ry="17.142857"
       sodipodi:rx="17.142857"
       sodipodi:cy="238.07646"
       sodipodi:cx="145.71428"
       id="path3252"
       style="opacity:1;fill:#ff0000;fill-opacity:1;stroke:none;stroke-width:5;stroke-miterlimit:4;stroke-dasharray:none;stroke-dashoffset:0;stroke-opacity:1"
       sodipodi:type="arc" />
    <path
       sodipodi:type="arc"
       style="opacity:1;fill:#ff0000;fill-opacity:1;stroke:none;stroke-width:5;stroke-miterlimit:4;stroke-dasharray:none;stroke-dashoffset:0;stroke-opacity:1"
       id="path3254"
       sodipodi:cx="145.71428"
       sodipodi:cy="238.07646"
       sodipodi:rx="17.142857"
       sodipodi:ry="17.142857"
       d="m 162.85714,238.07646 a 17.142857,17.142857 0 0 1 -17.14286,17.14286 17.142857,17.142857 0 0 1 -17.14286,-17.14286 17.142857,17.142857 0 0 1 17.14286,-17.14285 17.142857,17.142857 0 0 1 17.14286,17.14285 z"
       transform="matrix(0.5833333,0,0,0.5833333,413.26985,581.98899)" />
    <path
       transform="matrix(0.5833333,0,0,0.5833333,451.65565,552.69457)"
       d="m 162.85714,238.07646 a 17.142857,17.142857 0 0 1 -17.14286,17.14286 17.142857,17.142857 0 0 1 -17.14286,-17.14286 17.142857,17.142857 0 0 1 17.14286,-17.14285 17.142857,17.142857 0 0 1 17.14286,17.14285 z"
       sodipodi:ry="17.142857"
       sodipodi:rx="17.142857"
       sodipodi:cy="238.07646"
       sodipodi:cx="145.71428"
       id="path3256"
       style="opacity:1;fill:#ff0000;fill-opacity:1;stroke:none;stroke-width:5;stroke-miterlimit:4;stroke-dasharray:none;stroke-dashoffset:0;stroke-opacity:1"
       sodipodi:type="arc" />
    <path
       sodipodi:type="arc"
       style="opacity:1;fill:#ff0000;fill-opacity:1;stroke:none;stroke-width:5;stroke-miterlimit:4;stroke-dasharray:none;stroke-dashoffset:0;stroke-opacity:1"
       id="path3258"
       sodipodi:cx="145.71428"
       sodipodi:cy="238.07646"
       sodipodi:rx="17.142857"
       sodipodi:ry="17.142857"
       d="m 162.85714,238.07646 a 17.142857,17.142857 0 0 1 -17.14286,17.14286 17.142857,17.142857 0 0 1 -17.14286,-17.14286 17.142857,17.142857 0 0 1 17.14286,-17.14285 17.142857,17.142857 0 0 1 17.14286,17.14285 z"
       transform="matrix(0.5833333,0,0,0.5833333,466.80794,605.2225)" />
    <path
       transform="matrix(0.5833333,0,0,0.5833333,372.86375,561.78594)"
       d="m 162.85714,238.07646 a 17.142857,17.142857 0 0 1 -17.14286,17.14286 17.142857,17.142857 0 0 1 -17.14286,-17.14286 17.142857,17.142857 0 0 1 17.14286,-17.14285 17.142857,17.142857 0 0 1 17.14286,17.14285 z"
       sodipodi:ry="17.142857"
       sodipodi:rx="17.142857"
       sodipodi:cy="238.07646"
       sodipodi:cx="145.71428"
       id="path3260"
       style="opacity:1;fill:#ff0000;fill-opacity:1;stroke:none;stroke-width:5;stroke-miterlimit:4;stroke-dasharray:none;stroke-dashoffset:0;stroke-opacity:1"
       sodipodi:type="arc" />
    <path
       sodipodi:type="arc"
       style="opacity:1;fill:#ff0000;fill-opacity:1;stroke:none;stroke-width:5;stroke-miterlimit:4;stroke-dasharray:none;stroke-dashoffset:0;stroke-opacity:1"
       id="path3262"
       sodipodi:cx="145.71428"
       sodipodi:cy="238.07646"
       sodipodi:rx="17.142857"
       sodipodi:ry="17.142857"
       d="m 162.85714,238.07646 a 17.142857,17.142857 0 0 1 -17.14286,17.14286 17.142857,17.142857 0 0 1 -17.14286,-17.14286 17.142857,17.142857 0 0 1 17.14286,-17.14285 17.142857,17.142857 0 0 1 17.14286,17.14285 z"
       transform="matrix(0.5833333,0,0,0.5833333,426.40183,625.42555)" />
    <path
       transform="matrix(0.5833333,0,0,0.5833333,319.32566,617.34433)"
       d="m 162.85714,238.07646 a 17.142857,17.142857 0 0 1 -17.14286,17.14286 17.142857,17.142857 0 0 1 -17.14286,-17.14286 17.142857,17.142857 0 0 1 17.14286,-17.14285 17.142857,17.142857 0 0 1 17.14286,17.14285 z"
       sodipodi:ry="17.142857"
       sodipodi:rx="17.142857"
       sodipodi:cy="238.07646"
       sodipodi:cx="145.71428"
       id="path3264"
       style="opacity:1;fill:#ff0000;fill-opacity:1;stroke:none;stroke-width:5;stroke-miterlimit:4;stroke-dasharray:none;stroke-dashoffset:0;stroke-opacity:1"
       sodipodi:type="arc" />
    <path
       sodipodi:type="arc"
       style="opacity:1;fill:#ff0000;fill-opacity:1;stroke:none;stroke-width:5;stroke-miterlimit:4;stroke-dasharray:none;stroke-dashoffset:0;stroke-opacity:1"
       id="path3266"
       sodipodi:cx="145.71428"
       sodipodi:cy="238.07646"
       sodipodi:rx="17.142857"
       sodipodi:ry="17.142857"
       d="m 162.85714,238.07646 a 17.142857,17.142857 0 0 1 -17.14286,17.14286 17.142857,17.142857 0 0 1 -17.14286,-17.14286 17.142857,17.142857 0 0 1 17.14286,-17.14285 17.142857,17.142857 0 0 1 17.14286,17.14285 z"
       transform="matrix(0.5833333,0,0,0.5833333,238.51346,589.06006)" />
    <path
       transform="matrix(0.5833333,0,0,0.5833333,212.24949,612.29357)"
       d="m 162.85714,238.07646 a 17.142857,17.142857 0 0 1 -17.14286,17.14286 17.142857,17.142857 0 0 1 -17.14286,-17.14286 17.142857,17.142857 0 0 1 17.14286,-17.14285 17.142857,17.142857 0 0 1 17.14286,17.14285 z"
       sodipodi:ry="17.142857"
       sodipodi:rx="17.142857"
       sodipodi:cy="238.07646"
       sodipodi:cx="145.71428"
       id="path3268"
       style="opacity:1;fill:#ff0000;fill-opacity:1;stroke:none;stroke-width:5;stroke-miterlimit:4;stroke-dasharray:none;stroke-dashoffset:0;stroke-opacity:1"
       sodipodi:type="arc" />
    <path
       sodipodi:type="arc"
       style="opacity:1;fill:#ff0000;fill-opacity:1;stroke:none;stroke-width:5;stroke-miterlimit:4;stroke-dasharray:none;stroke-dashoffset:0;stroke-opacity:1"
       id="path3270"
       sodipodi:cx="145.71428"
       sodipodi:cy="238.07646"
       sodipodi:rx="17.142857"
       sodipodi:ry="17.142857"
       d="m 162.85714,238.07646 a 17.142857,17.142857 0 0 1 -17.14286,17.14286 17.142857,17.142857 0 0 1 -17.14286,-17.14286 17.142857,17.142857 0 0 1 17.14286,-17.14285 17.142857,17.142857 0 0 1 17.14286,17.14285 z"
       transform="matrix(0.5833333,0,0,0.5833333,140.52866,592.09052)" />
    <path
       transform="matrix(0.5833333,0,0,0.5833333,447.61503,603.2022)"
       d="m 162.85714,238.07646 a 17.142857,17.142857 0 0 1 -17.14286,17.14286 17.142857,17.142857 0 0 1 -17.14286,-17.14286 17.142857,17.142857 0 0 1 17.14286,-17.14285 17.142857,17.142857 0 0 1 17.14286,17.14285 z"
       sodipodi:ry="17.142857"
       sodipodi:rx="17.142857"
       sodipodi:cy="238.07646"
       sodipodi:cx="145.71428"
       id="path3272"
       style="opacity:1;fill:#ff0000;fill-opacity:1;stroke:none;stroke-width:5;stroke-miterlimit:4;stroke-dasharray:none;stroke-dashoffset:0;stroke-opacity:1"
       sodipodi:type="arc" />
    <path
       sodipodi:type="arc"
       style="opacity:1;fill:#ff0000;fill-opacity:1;stroke:none;stroke-width:5;stroke-miterlimit:4;stroke-dasharray:none;stroke-dashoffset:0;stroke-opacity:1"
       id="path3274"
       sodipodi:cx="145.71428"
       sodipodi:cy="238.07646"
       sodipodi:rx="17.142857"
       sodipodi:ry="17.142857"
       d="m 162.85714,238.07646 a 17.142857,17.142857 0 0 1 -17.14286,17.14286 17.142857,17.142857 0 0 1 -17.14286,-17.14286 17.142857,17.142857 0 0 1 17.14286,-17.14285 17.142857,17.142857 0 0 1 17.14286,17.14285 z"
       transform="matrix(0.5833333,0,0,0.5833333,509.23434,565.82656)" />
    <path
       transform="matrix(0.5833333,0,0,0.5833333,508.22419,608.25297)"
       d="m 162.85714,238.07646 a 17.142857,17.142857 0 0 1 -17.14286,17.14286 17.142857,17.142857 0 0 1 -17.14286,-17.14286 17.142857,17.142857 0 0 1 17.14286,-17.14285 17.142857,17.142857 0 0 1 17.14286,17.14285 z"
       sodipodi:ry="17.142857"
       sodipodi:rx="17.142857"
       sodipodi:cy="238.07646"
       sodipodi:cx="145.71428"
       id="path3276"
       style="opacity:1;fill:#ff0000;fill-opacity:1;stroke:none;stroke-width:5;stroke-miterlimit:4;stroke-dasharray:none;stroke-dashoffset:0;stroke-opacity:1"
       sodipodi:type="arc" />
    <path
       sodipodi:type="arc"
       style="opacity:1;fill:#ff0000;fill-opacity:1;stroke:none;stroke-width:5;stroke-miterlimit:4;stroke-dasharray:none;stroke-dashoffset:0;stroke-opacity:1"
       id="path3278"
       sodipodi:cx="145.71428"
       sodipodi:cy="238.07646"
       sodipodi:rx="17.142857"
       sodipodi:ry="17.142857"
       d="m 162.85714,238.07646 a 17.142857,17.142857 0 0 1 -17.14286,17.14286 17.142857,17.142857 0 0 1 -17.14286,-17.14286 17.142857,17.142857 0 0 1 17.14286,-17.14285 17.142857,17.142857 0 0 1 17.14286,17.14285 z"
       transform="matrix(0.5833333,0,0,0.5833333,542.56938,576.93824)" />
    <path
       transform="matrix(0.5833333,0,0,0.5833333,548.6303,540.57275)"
       d="m 162.85714,238.07646 a 17.142857,17.142857 0 0 1 -17.14286,17.14286 17.142857,17.142857 0 0 1 -17.14286,-17.14286 17.142857,17.142857 0 0 1 17.14286,-17.14285 17.142857,17.142857 0 0 1 17.14286,17.14285 z"
       sodipodi:ry="17.142857"
       sodipodi:rx="17.142857"
       sodipodi:cy="238.07646"
       sodipodi:cx="145.71428"
       id="path3280"
       style="opacity:1;fill:#ff0000;fill-opacity:1;stroke:none;stroke-width:5;stroke-miterlimit:4;stroke-dasharray:none;stroke-dashoffset:0;stroke-opacity:1"
       sodipodi:type="arc" />
    <path
       sodipodi:type="arc"
       style="opacity:1;fill:#ff0000;fill-opacity:1;stroke:none;stroke-width:5;stroke-miterlimit:4;stroke-dasharray:none;stroke-dashoffset:0;stroke-opacity:1"
       id="path3284"
       sodipodi:cx="145.71428"
       sodipodi:cy="238.07646"
       sodipodi:rx="17.142857"
       sodipodi:ry="17.142857"
       d="m 162.85714,238.07646 a 17.142857,17.142857 0 0 1 -17.14286,17.14286 17.142857,17.142857 0 0 1 -17.14286,-17.14286 17.142857,17.142857 0 0 1 17.14286,-17.14285 17.142857,17.142857 0 0 1 17.14286,17.14285 z"
       transform="matrix(0.5833333,0,0,0.5833333,563.78259,501.1768)" />
    <path
       transform="matrix(0.5833333,0,0,0.5833333,510.24451,466.83161)"
       d="m 162.85714,238.07646 a 17.142857,17.142857 0 0 1 -17.14286,17.14286 17.142857,17.142857 0 0 1 -17.14286,-17.14286 17.142857,17.142857 0 0 1 17.14286,-17.14285 17.142857,17.142857 0 0 1 17.14286,17.14285 z"
       sodipodi:ry="17.142857"
       sodipodi:rx="17.142857"
       sodipodi:cy="238.07646"
       sodipodi:cx="145.71428"
       id="path3286"
       style="opacity:1;fill:#ff0000;fill-opacity:1;stroke:none;stroke-width:5;stroke-miterlimit:4;stroke-dasharray:none;stroke-dashoffset:0;stroke-opacity:1"
       sodipodi:type="arc" />
    <path
       sodipodi:type="arc"
       style="opacity:1;fill:#ff0000;fill-opacity:1;stroke:none;stroke-width:5;stroke-miterlimit:4;stroke-dasharray:none;stroke-dashoffset:0;stroke-opacity:1"
       id="path3288"
       sodipodi:cx="145.71428"
       sodipodi:cy="238.07646"
       sodipodi:rx="17.142857"
       sodipodi:ry="17.142857"
       d="m 162.85714,238.07646 a 17.142857,17.142857 0 0 1 -17.14286,17.14286 17.142857,17.142857 0 0 1 -17.14286,-17.14286 17.142857,17.142857 0 0 1 17.14286,-17.14285 17.142857,17.142857 0 0 1 17.14286,17.14285 z"
       transform="matrix(0.5833333,0,0,0.5833333,488.02115,532.49153)" />
    <path
       transform="matrix(0.5833333,0,0,0.5833333,543.57954,616.33419)"
       d="m 162.85714,238.07646 a 17.142857,17.142857 0 0 1 -17.14286,17.14286 17.142857,17.142857 0 0 1 -17.14286,-17.14286 17.142857,17.142857 0 0 1 17.14286,-17.14285 17.142857,17.142857 0 0 1 17.14286,17.14285 z"
       sodipodi:ry="17.142857"
       sodipodi:rx="17.142857"
       sodipodi:cy="238.07646"
       sodipodi:cx="145.71428"
       id="path3290"
       style="opacity:1;fill:#ff0000;fill-opacity:1;stroke:none;stroke-width:5;stroke-miterlimit:4;stroke-dasharray:none;stroke-dashoffset:0;stroke-opacity:1"
       sodipodi:type="arc" />
    <path
       sodipodi:type="arc"
       style="opacity:1;fill:#ff0000;fill-opacity:1;stroke:none;stroke-width:5;stroke-miterlimit:4;stroke-dasharray:none;stroke-dashoffset:0;stroke-opacity:1"
       id="path3292"
       sodipodi:cx="145.71428"
       sodipodi:cy="238.07646"
       sodipodi:rx="17.142857"
       sodipodi:ry="17.142857"
       d="m 162.85714,238.07646 a 17.142857,17.142857 0 0 1 -17.14286,17.14286 17.142857,17.142857 0 0 1 -17.14286,-17.14286 17.142857,17.142857 0 0 1 17.14286,-17.14285 17.142857,17.142857 0 0 1 17.14286,17.14285 z"
       transform="matrix(0.5833333,0,0,0.5833333,543.57954,616.33419)" />
    <path
       transform="matrix(0.5833333,0,0,0.5833333,133.69037,288.6786)"
       d="m 162.85714,238.07646 a 17.142857,17.142857 0 0 1 -17.14286,17.14286 17.142857,17.142857 0 0 1 -17.14286,-17.14286 17.142857,17.142857 0 0 1 17.14286,-17.14285 17.142857,17.142857 0 0 1 17.14286,17.14285 z"
       sodipodi:ry="17.142857"
       sodipodi:rx="17.142857"
       sodipodi:cy="238.07646"
       sodipodi:cx="145.71428"
       id="path3294"
       style="opacity:1;fill:#0006ff;fill-opacity:1;stroke:none;stroke-width:5;stroke-miterlimit:4;stroke-dasharray:none;stroke-dashoffset:0;stroke-opacity:1"
       sodipodi:type="arc" />
    <path
       sodipodi:type="arc"
       style="opacity:1;fill:#0006ff;fill-opacity:1;stroke:none;stroke-width:5;stroke-miterlimit:4;stroke-dasharray:none;stroke-dashoffset:0;stroke-opacity:1"
       id="path3296"
       sodipodi:cx="145.71428"
       sodipodi:cy="238.07646"
       sodipodi:rx="17.142857"
       sodipodi:ry="17.142857"
       d="m 162.85714,238.07646 a 17.142857,17.142857 0 0 1 -17.14286,17.14286 17.142857,17.142857 0 0 1 -17.14286,-17.14286 17.142857,17.142857 0 0 1 17.14286,-17.14285 17.142857,17.142857 0 0 1 17.14286,17.14285 z"
       transform="matrix(0.5833333,0,0,0.5833333,88.233505,315.95272)" />
    <path
       transform="matrix(0.5833333,0,0,0.5833333,103.38579,365.45019)"
       d="m 162.85714,238.07646 a 17.142857,17.142857 0 0 1 -17.14286,17.14286 17.142857,17.142857 0 0 1 -17.14286,-17.14286 17.142857,17.142857 0 0 1 17.14286,-17.14285 17.142857,17.142857 0 0 1 17.14286,17.14285 z"
       sodipodi:ry="17.142857"
       sodipodi:rx="17.142857"
       sodipodi:cy="238.07646"
       sodipodi:cx="145.71428"
       id="path3298"
       style="opacity:1;fill:#0006ff;fill-opacity:1;stroke:none;stroke-width:5;stroke-miterlimit:4;stroke-dasharray:none;stroke-dashoffset:0;stroke-opacity:1"
       sodipodi:type="arc" />
    <path
       sodipodi:type="arc"
       style="opacity:1;fill:#0006ff;fill-opacity:1;stroke:none;stroke-width:5;stroke-miterlimit:4;stroke-dasharray:none;stroke-dashoffset:0;stroke-opacity:1"
       id="path3300"
       sodipodi:cx="145.71428"
       sodipodi:cy="238.07646"
       sodipodi:rx="17.142857"
       sodipodi:ry="17.142857"
       d="m 162.85714,238.07646 a 17.142857,17.142857 0 0 1 -17.14286,17.14286 17.142857,17.142857 0 0 1 -17.14286,-17.14286 17.142857,17.142857 0 0 1 17.14286,-17.14285 17.142857,17.142857 0 0 1 17.14286,17.14285 z"
       transform="matrix(0.5833333,0,0,0.5833333,149.85281,371.51111)" />
    <path
       transform="matrix(0.5833333,0,0,0.5833333,132.68022,409.89691)"
       d="m 162.85714,238.07646 a 17.142857,17.142857 0 0 1 -17.14286,17.14286 17.142857,17.142857 0 0 1 -17.14286,-17.14286 17.142857,17.142857 0 0 1 17.14286,-17.14285 17.142857,17.142857 0 0 1 17.14286,17.14285 z"
       sodipodi:ry="17.142857"
       sodipodi:rx="17.142857"
       sodipodi:cy="238.07646"
       sodipodi:cx="145.71428"
       id="path3302"
       style="opacity:1;fill:#0006ff;fill-opacity:1;stroke:none;stroke-width:5;stroke-miterlimit:4;stroke-dasharray:none;stroke-dashoffset:0;stroke-opacity:1"
       sodipodi:type="arc" />
    <path
       sodipodi:type="arc"
       style="opacity:1;fill:#0006ff;fill-opacity:1;stroke:none;stroke-width:5;stroke-miterlimit:4;stroke-dasharray:none;stroke-dashoffset:0;stroke-opacity:1"
       id="path3304"
       sodipodi:cx="145.71428"
       sodipodi:cy="238.07646"
       sodipodi:rx="17.142857"
       sodipodi:ry="17.142857"
       d="m 162.85714,238.07646 a 17.142857,17.142857 0 0 1 -17.14286,17.14286 17.142857,17.142857 0 0 1 -17.14286,-17.14286 17.142857,17.142857 0 0 1 17.14286,-17.14285 17.142857,17.142857 0 0 1 17.14286,17.14285 z"
       transform="matrix(0.5833333,0,0,0.5833333,183.18785,409.89691)" />
    <path
       transform="matrix(0.5833333,0,0,0.5833333,148.84266,442.22179)"
       d="m 162.85714,238.07646 a 17.142857,17.142857 0 0 1 -17.14286,17.14286 17.142857,17.142857 0 0 1 -17.14286,-17.14286 17.142857,17.142857 0 0 1 17.14286,-17.14285 17.142857,17.142857 0 0 1 17.14286,17.14285 z"
       sodipodi:ry="17.142857"
       sodipodi:rx="17.142857"
       sodipodi:cy="238.07646"
       sodipodi:cx="145.71428"
       id="path3306"
       style="opacity:1;fill:#0006ff;fill-opacity:1;stroke:none;stroke-width:5;stroke-miterlimit:4;stroke-dasharray:none;stroke-dashoffset:0;stroke-opacity:1"
       sodipodi:type="arc" />
    <path
       sodipodi:type="arc"
       style="opacity:1;fill:#0006ff;fill-opacity:1;stroke:none;stroke-width:5;stroke-miterlimit:4;stroke-dasharray:none;stroke-dashoffset:0;stroke-opacity:1"
       id="path3308"
       sodipodi:cx="145.71428"
       sodipodi:cy="238.07646"
       sodipodi:rx="17.142857"
       sodipodi:ry="17.142857"
       d="m 162.85714,238.07646 a 17.142857,17.142857 0 0 1 -17.14286,17.14286 17.142857,17.142857 0 0 1 -17.14286,-17.14286 17.142857,17.142857 0 0 1 17.14286,-17.14285 17.142857,17.142857 0 0 1 17.14286,17.14285 z"
       transform="matrix(0.5833333,0,0,0.5833333,169.04571,471.51621)" />
    <path
       transform="matrix(0.5833333,0,0,0.5833333,231.67517,470.50606)"
       d="m 162.85714,238.07646 a 17.142857,17.142857 0 0 1 -17.14286,17.14286 17.142857,17.142857 0 0 1 -17.14286,-17.14286 17.142857,17.142857 0 0 1 17.14286,-17.14285 17.142857,17.142857 0 0 1 17.14286,17.14285 z"
       sodipodi:ry="17.142857"
       sodipodi:rx="17.142857"
       sodipodi:cy="238.07646"
       sodipodi:cx="145.71428"
       id="path3310"
       style="opacity:1;fill:#0006ff;fill-opacity:1;stroke:none;stroke-width:5;stroke-miterlimit:4;stroke-dasharray:none;stroke-dashoffset:0;stroke-opacity:1"
       sodipodi:type="arc" />
    <path
       sodipodi:type="arc"
       style="opacity:1;fill:#0006ff;fill-opacity:1;stroke:none;stroke-width:5;stroke-miterlimit:4;stroke-dasharray:none;stroke-dashoffset:0;stroke-opacity:1"
       id="path3312"
       sodipodi:cx="145.71428"
       sodipodi:cy="238.07646"
       sodipodi:rx="17.142857"
       sodipodi:ry="17.142857"
       d="m 162.85714,238.07646 a 17.142857,17.142857 0 0 1 -17.14286,17.14286 17.142857,17.142857 0 0 1 -17.14286,-17.14286 17.142857,17.142857 0 0 1 17.14286,-17.14285 17.142857,17.142857 0 0 1 17.14286,17.14285 z"
       transform="matrix(0.5833333,0,0,0.5833333,244.80715,496.77003)" />
    <path
       transform="matrix(0.5833333,0,0,0.5833333,326.62951,462.42484)"
       d="m 162.85714,238.07646 a 17.142857,17.142857 0 0 1 -17.14286,17.14286 17.142857,17.142857 0 0 1 -17.14286,-17.14286 17.142857,17.142857 0 0 1 17.14286,-17.14285 17.142857,17.142857 0 0 1 17.14286,17.14285 z"
       sodipodi:ry="17.142857"
       sodipodi:rx="17.142857"
       sodipodi:cy="238.07646"
       sodipodi:cx="145.71428"
       id="path3314"
       style="opacity:1;fill:#0006ff;fill-opacity:1;stroke:none;stroke-width:5;stroke-miterlimit:4;stroke-dasharray:none;stroke-dashoffset:0;stroke-opacity:1"
       sodipodi:type="arc" />
    <path
       sodipodi:type="arc"
       style="opacity:1;fill:#0006ff;fill-opacity:1;stroke:none;stroke-width:5;stroke-miterlimit:4;stroke-dasharray:none;stroke-dashoffset:0;stroke-opacity:1"
       id="path3316"
       sodipodi:cx="145.71428"
       sodipodi:cy="238.07646"
       sodipodi:rx="17.142857"
       sodipodi:ry="17.142857"
       d="m 162.85714,238.07646 a 17.142857,17.142857 0 0 1 -17.14286,17.14286 17.142857,17.142857 0 0 1 -17.14286,-17.14286 17.142857,17.142857 0 0 1 17.14286,-17.14285 17.142857,17.142857 0 0 1 17.14286,17.14285 z"
       transform="matrix(0.5833333,0,0,0.5833333,312.48737,484.6482)" />
    <path
       transform="matrix(0.5833333,0,0,0.5833333,376.12698,460.40454)"
       d="m 162.85714,238.07646 a 17.142857,17.142857 0 0 1 -17.14286,17.14286 17.142857,17.142857 0 0 1 -17.14286,-17.14286 17.142857,17.142857 0 0 1 17.14286,-17.14285 17.142857,17.142857 0 0 1 17.14286,17.14285 z"
       sodipodi:ry="17.142857"
       sodipodi:rx="17.142857"
       sodipodi:cy="238.07646"
       sodipodi:cx="145.71428"
       id="path3318"
       style="opacity:1;fill:#0006ff;fill-opacity:1;stroke:none;stroke-width:5;stroke-miterlimit:4;stroke-dasharray:none;stroke-dashoffset:0;stroke-opacity:1"
       sodipodi:type="arc" />
    <path
       sodipodi:type="arc"
       style="opacity:1;fill:#0006ff;fill-opacity:1;stroke:none;stroke-width:5;stroke-miterlimit:4;stroke-dasharray:none;stroke-dashoffset:0;stroke-opacity:1"
       id="path3320"
       sodipodi:cx="145.71428"
       sodipodi:cy="238.07646"
       sodipodi:rx="17.142857"
       sodipodi:ry="17.142857"
       d="m 162.85714,238.07646 a 17.142857,17.142857 0 0 1 -17.14286,17.14286 17.142857,17.142857 0 0 1 -17.14286,-17.14286 17.142857,17.142857 0 0 1 17.14286,-17.14285 17.142857,17.142857 0 0 1 17.14286,17.14285 z"
       transform="matrix(0.5833333,0,0,0.5833333,374.10667,480.60759)" />
    <path
       transform="matrix(0.5833333,0,0,0.5833333,420.57369,461.41469)"
       d="m 162.85714,238.07646 a 17.142857,17.142857 0 0 1 -17.14286,17.14286 17.142857,17.142857 0 0 1 -17.14286,-17.14286 17.142857,17.142857 0 0 1 17.14286,-17.14285 17.142857,17.142857 0 0 1 17.14286,17.14285 z"
       sodipodi:ry="17.142857"
       sodipodi:rx="17.142857"
       sodipodi:cy="238.07646"
       sodipodi:cx="145.71428"
       id="path3322"
       style="opacity:1;fill:#0006ff;fill-opacity:1;stroke:none;stroke-width:5;stroke-miterlimit:4;stroke-dasharray:none;stroke-dashoffset:0;stroke-opacity:1"
       sodipodi:type="arc" />
    <path
       sodipodi:type="arc"
       style="opacity:1;fill:#0006ff;fill-opacity:1;stroke:none;stroke-width:5;stroke-miterlimit:4;stroke-dasharray:none;stroke-dashoffset:0;stroke-opacity:1"
       id="path3324"
       sodipodi:cx="145.71428"
       sodipodi:cy="238.07646"
       sodipodi:rx="17.142857"
       sodipodi:ry="17.142857"
       d="m 162.85714,238.07646 a 17.142857,17.142857 0 0 1 -17.14286,17.14286 17.142857,17.142857 0 0 1 -17.14286,-17.14286 17.142857,17.142857 0 0 1 17.14286,-17.14285 17.142857,17.142857 0 0 1 17.14286,17.14285 z"
       transform="matrix(0.5833333,0,0,0.5833333,409.46201,487.67866)" />
    <path
       transform="matrix(0.5833333,0,0,0.5833333,358.95438,411.91722)"
       d="m 162.85714,238.07646 a 17.142857,17.142857 0 0 1 -17.14286,17.14286 17.142857,17.142857 0 0 1 -17.14286,-17.14286 17.142857,17.142857 0 0 1 17.14286,-17.14285 17.142857,17.142857 0 0 1 17.14286,17.14285 z"
       sodipodi:ry="17.142857"
       sodipodi:rx="17.142857"
       sodipodi:cy="238.07646"
       sodipodi:cx="145.71428"
       id="path3326"
       style="opacity:1;fill:#0006ff;fill-opacity:1;stroke:none;stroke-width:5;stroke-miterlimit:4;stroke-dasharray:none;stroke-dashoffset:0;stroke-opacity:1"
       sodipodi:type="arc" />
    <path
       sodipodi:type="arc"
       style="opacity:1;fill:#0006ff;fill-opacity:1;stroke:none;stroke-width:5;stroke-miterlimit:4;stroke-dasharray:none;stroke-dashoffset:0;stroke-opacity:1"
       id="path3328"
       sodipodi:cx="145.71428"
       sodipodi:cy="238.07646"
       sodipodi:rx="17.142857"
       sodipodi:ry="17.142857"
       d="m 162.85714,238.07646 a 17.142857,17.142857 0 0 1 -17.14286,17.14286 17.142857,17.142857 0 0 1 -17.14286,-17.14286 17.142857,17.142857 0 0 1 17.14286,-17.14285 17.142857,17.142857 0 0 1 17.14286,17.14285 z"
       transform="matrix(0.5833333,0,0,0.5833333,337.74118,438.18119)" />
    <path
       transform="matrix(0.5833333,0,0,0.5833333,359.96454,473.53653)"
       d="m 162.85714,238.07646 a 17.142857,17.142857 0 0 1 -17.14286,17.14286 17.142857,17.142857 0 0 1 -17.14286,-17.14286 17.142857,17.142857 0 0 1 17.14286,-17.14285 17.142857,17.142857 0 0 1 17.14286,17.14285 z"
       sodipodi:ry="17.142857"
       sodipodi:rx="17.142857"
       sodipodi:cy="238.07646"
       sodipodi:cx="145.71428"
       id="path3330"
       style="opacity:1;fill:#0006ff;fill-opacity:1;stroke:none;stroke-width:5;stroke-miterlimit:4;stroke-dasharray:none;stroke-dashoffset:0;stroke-opacity:1"
       sodipodi:type="arc" />
    <path
       sodipodi:type="arc"
       style="opacity:1;fill:#0006ff;fill-opacity:1;stroke:none;stroke-width:5;stroke-miterlimit:4;stroke-dasharray:none;stroke-dashoffset:0;stroke-opacity:1"
       id="path3332"
       sodipodi:cx="145.71428"
       sodipodi:cy="238.07646"
       sodipodi:rx="17.142857"
       sodipodi:ry="17.142857"
       d="m 162.85714,238.07646 a 17.142857,17.142857 0 0 1 -17.14286,17.14286 17.142857,17.142857 0 0 1 -17.14286,-17.14286 17.142857,17.142857 0 0 1 17.14286,-17.14285 17.142857,17.142857 0 0 1 17.14286,17.14285 z"
       transform="matrix(0.5833333,0,0,0.5833333,411.48232,436.16089)" />
    <path
       transform="matrix(0.5833333,0,0,0.5833333,419.56354,455.35379)"
       d="m 162.85714,238.07646 a 17.142857,17.142857 0 0 1 -17.14286,17.14286 17.142857,17.142857 0 0 1 -17.14286,-17.14286 17.142857,17.142857 0 0 1 17.14286,-17.14285 17.142857,17.142857 0 0 1 17.14286,17.14285 z"
       sodipodi:ry="17.142857"
       sodipodi:rx="17.142857"
       sodipodi:cy="238.07646"
       sodipodi:cx="145.71428"
       id="path3334"
       style="opacity:1;fill:#0006ff;fill-opacity:1;stroke:none;stroke-width:5;stroke-miterlimit:4;stroke-dasharray:none;stroke-dashoffset:0;stroke-opacity:1"
       sodipodi:type="arc" />
    <path
       sodipodi:type="arc"
       style="opacity:1;fill:#0006ff;fill-opacity:1;stroke:none;stroke-width:5;stroke-miterlimit:4;stroke-dasharray:none;stroke-dashoffset:0;stroke-opacity:1"
       id="path3336"
       sodipodi:cx="145.71428"
       sodipodi:cy="238.07646"
       sodipodi:rx="17.142857"
       sodipodi:ry="17.142857"
       d="m 162.85714,238.07646 a 17.142857,17.142857 0 0 1 -17.14286,17.14286 17.142857,17.142857 0 0 1 -17.14286,-17.14286 17.142857,17.142857 0 0 1 17.14286,-17.14285 17.142857,17.142857 0 0 1 17.14286,17.14285 z"
       transform="matrix(0.5833333,0,0,0.5833333,452.89857,428.07967)" />
    <path
       transform="matrix(0.5833333,0,0,0.5833333,439.76659,456.36394)"
       d="m 162.85714,238.07646 a 17.142857,17.142857 0 0 1 -17.14286,17.14286 17.142857,17.142857 0 0 1 -17.14286,-17.14286 17.142857,17.142857 0 0 1 17.14286,-17.14285 17.142857,17.142857 0 0 1 17.14286,17.14285 z"
       sodipodi:ry="17.142857"
       sodipodi:rx="17.142857"
       sodipodi:cy="238.07646"
       sodipodi:cx="145.71428"
       id="path3338"
       style="opacity:1;fill:#0006ff;fill-opacity:1;stroke:none;stroke-width:5;stroke-miterlimit:4;stroke-dasharray:none;stroke-dashoffset:0;stroke-opacity:1"
       sodipodi:type="arc" />
    <path
       sodipodi:type="arc"
       style="opacity:1;fill:#0006ff;fill-opacity:1;stroke:none;stroke-width:5;stroke-miterlimit:4;stroke-dasharray:none;stroke-dashoffset:0;stroke-opacity:1"
       id="path3340"
       sodipodi:cx="145.71428"
       sodipodi:cy="238.07646"
       sodipodi:rx="17.142857"
       sodipodi:ry="17.142857"
       d="m 162.85714,238.07646 a 17.142857,17.142857 0 0 1 -17.14286,17.14286 17.142857,17.142857 0 0 1 -17.14286,-17.14286 17.142857,17.142857 0 0 1 17.14286,-17.14285 17.142857,17.142857 0 0 1 17.14286,17.14285 z"
       transform="matrix(0.5833333,0,0,0.5833333,447.84781,472.52638)" />
    <path
       transform="matrix(0.5833333,0,0,0.5833333,486.23361,444.24211)"
       d="m 162.85714,238.07646 a 17.142857,17.142857 0 0 1 -17.14286,17.14286 17.142857,17.142857 0 0 1 -17.14286,-17.14286 17.142857,17.142857 0 0 1 17.14286,-17.14285 17.142857,17.142857 0 0 1 17.14286,17.14285 z"
       sodipodi:ry="17.142857"
       sodipodi:rx="17.142857"
       sodipodi:cy="238.07646"
       sodipodi:cx="145.71428"
       id="path3342"
       style="opacity:1;fill:#0006ff;fill-opacity:1;stroke:none;stroke-width:5;stroke-miterlimit:4;stroke-dasharray:none;stroke-dashoffset:0;stroke-opacity:1"
       sodipodi:type="arc" />
    <path
       sodipodi:type="arc"
       style="opacity:1;fill:#0006ff;fill-opacity:1;stroke:none;stroke-width:5;stroke-miterlimit:4;stroke-dasharray:none;stroke-dashoffset:0;stroke-opacity:1"
       id="path3344"
       sodipodi:cx="145.71428"
       sodipodi:cy="238.07646"
       sodipodi:rx="17.142857"
       sodipodi:ry="17.142857"
       d="m 162.85714,238.07646 a 17.142857,17.142857 0 0 1 -17.14286,17.14286 17.142857,17.142857 0 0 1 -17.14286,-17.14286 17.142857,17.142857 0 0 1 17.14286,-17.14285 17.142857,17.142857 0 0 1 17.14286,17.14285 z"
       transform="matrix(0.5833333,0,0,0.5833333,485.22346,472.52638)" />
    <path
       transform="matrix(0.5833333,0,0,0.5833333,539.7717,424.03906)"
       d="m 162.85714,238.07646 a 17.142857,17.142857 0 0 1 -17.14286,17.14286 17.142857,17.142857 0 0 1 -17.14286,-17.14286 17.142857,17.142857 0 0 1 17.14286,-17.14285 17.142857,17.142857 0 0 1 17.14286,17.14285 z"
       sodipodi:ry="17.142857"
       sodipodi:rx="17.142857"
       sodipodi:cy="238.07646"
       sodipodi:cx="145.71428"
       id="path3346"
       style="opacity:1;fill:#0006ff;fill-opacity:1;stroke:none;stroke-width:5;stroke-miterlimit:4;stroke-dasharray:none;stroke-dashoffset:0;stroke-opacity:1"
       sodipodi:type="arc" />
    <path
       sodipodi:type="arc"
       style="opacity:1;fill:#0006ff;fill-opacity:1;stroke:none;stroke-width:5;stroke-miterlimit:4;stroke-dasharray:none;stroke-dashoffset:0;stroke-opacity:1"
       id="path3348"
       sodipodi:cx="145.71428"
       sodipodi:cy="238.07646"
       sodipodi:rx="17.142857"
       sodipodi:ry="17.142857"
       d="m 162.85714,238.07646 a 17.142857,17.142857 0 0 1 -17.14286,17.14286 17.142857,17.142857 0 0 1 -17.14286,-17.14286 17.142857,17.142857 0 0 1 17.14286,-17.14285 17.142857,17.142857 0 0 1 17.14286,17.14285 z"
       transform="matrix(0.5833333,0,0,0.5833333,543.81231,434.14059)" />
    <path
       transform="matrix(0.5833333,0,0,0.5833333,533.71078,454.34364)"
       d="m 162.85714,238.07646 a 17.142857,17.142857 0 0 1 -17.14286,17.14286 17.142857,17.142857 0 0 1 -17.14286,-17.14286 17.142857,17.142857 0 0 1 17.14286,-17.14285 17.142857,17.142857 0 0 1 17.14286,17.14285 z"
       sodipodi:ry="17.142857"
       sodipodi:rx="17.142857"
       sodipodi:cy="238.07646"
       sodipodi:cx="145.71428"
       id="path3350"
       style="opacity:1;fill:#0006ff;fill-opacity:1;stroke:none;stroke-width:5;stroke-miterlimit:4;stroke-dasharray:none;stroke-dashoffset:0;stroke-opacity:1"
       sodipodi:type="arc" />
    <path
       sodipodi:type="arc"
       style="opacity:1;fill:#0006ff;fill-opacity:1;stroke:none;stroke-width:5;stroke-miterlimit:4;stroke-dasharray:none;stroke-dashoffset:0;stroke-opacity:1"
       id="path3352"
       sodipodi:cx="145.71428"
       sodipodi:cy="238.07646"
       sodipodi:rx="17.142857"
       sodipodi:ry="17.142857"
       d="m 162.85714,238.07646 a 17.142857,17.142857 0 0 1 -17.14286,17.14286 17.142857,17.142857 0 0 1 -17.14286,-17.14286 17.142857,17.142857 0 0 1 17.14286,-17.14285 17.142857,17.142857 0 0 1 17.14286,17.14285 z"
       transform="matrix(0.5833333,0,0,0.5833333,561.99505,390.70403)" />
    <path
       transform="matrix(0.5833333,0,0,0.5833333,370.06607,295.74969)"
       d="m 162.85714,238.07646 a 17.142857,17.142857 0 0 1 -17.14286,17.14286 17.142857,17.142857 0 0 1 -17.14286,-17.14286 17.142857,17.142857 0 0 1 17.14286,-17.14285 17.142857,17.142857 0 0 1 17.14286,17.14285 z"
       sodipodi:ry="17.142857"
       sodipodi:rx="17.142857"
       sodipodi:cy="238.07646"
       sodipodi:cx="145.71428"
       id="path3354"
       style="opacity:1;fill:#0006ff;fill-opacity:1;stroke:none;stroke-width:5;stroke-miterlimit:4;stroke-dasharray:none;stroke-dashoffset:0;stroke-opacity:1"
       sodipodi:type="arc" />
    <path
       sodipodi:type="arc"
       style="opacity:1;fill:#0006ff;fill-opacity:1;stroke:none;stroke-width:5;stroke-miterlimit:4;stroke-dasharray:none;stroke-dashoffset:0;stroke-opacity:1"
       id="path3358"
       sodipodi:cx="145.71428"
       sodipodi:cy="238.07646"
       sodipodi:rx="17.142857"
       sodipodi:ry="17.142857"
       d="m 162.85714,238.07646 a 17.142857,17.142857 0 0 1 -17.14286,17.14286 17.142857,17.142857 0 0 1 -17.14286,-17.14286 17.142857,17.142857 0 0 1 17.14286,-17.14285 17.142857,17.142857 0 0 1 17.14286,17.14285 z"
       transform="matrix(0.5833333,0,0,0.5833333,317.53814,345.24716)" />
    <path
       transform="matrix(0.5833333,0,0,0.5833333,275.11173,377.57204)"
       d="m 162.85714,238.07646 a 17.142857,17.142857 0 0 1 -17.14286,17.14286 17.142857,17.142857 0 0 1 -17.14286,-17.14286 17.142857,17.142857 0 0 1 17.14286,-17.14285 17.142857,17.142857 0 0 1 17.14286,17.14285 z"
       sodipodi:ry="17.142857"
       sodipodi:rx="17.142857"
       sodipodi:cy="238.07646"
       sodipodi:cx="145.71428"
       id="path3362"
       style="opacity:1;fill:#0006ff;fill-opacity:1;stroke:none;stroke-width:5;stroke-miterlimit:4;stroke-dasharray:none;stroke-dashoffset:0;stroke-opacity:1"
       sodipodi:type="arc" />
    <path
       sodipodi:type="arc"
       style="opacity:1;fill:#0006ff;fill-opacity:1;stroke:none;stroke-width:5;stroke-miterlimit:4;stroke-dasharray:none;stroke-dashoffset:0;stroke-opacity:1"
       id="path3364"
       sodipodi:cx="145.71428"
       sodipodi:cy="238.07646"
       sodipodi:rx="17.142857"
       sodipodi:ry="17.142857"
       d="m 162.85714,238.07646 a 17.142857,17.142857 0 0 1 -17.14286,17.14286 17.142857,17.142857 0 0 1 -17.14286,-17.14286 17.142857,17.142857 0 0 1 17.14286,-17.14285 17.142857,17.142857 0 0 1 17.14286,17.14285 z"
       transform="matrix(0.5833333,0,0,0.5833333,213.49242,388.68372)" />
    <path
       transform="matrix(0.5833333,0,0,0.5833333,165.0051,393.73448)"
       d="m 162.85714,238.07646 a 17.142857,17.142857 0 0 1 -17.14286,17.14286 17.142857,17.142857 0 0 1 -17.14286,-17.14286 17.142857,17.142857 0 0 1 17.14286,-17.14285 17.142857,17.142857 0 0 1 17.14286,17.14285 z"
       sodipodi:ry="17.142857"
       sodipodi:rx="17.142857"
       sodipodi:cy="238.07646"
       sodipodi:cx="145.71428"
       id="path3366"
       style="opacity:1;fill:#0006ff;fill-opacity:1;stroke:none;stroke-width:5;stroke-miterlimit:4;stroke-dasharray:none;stroke-dashoffset:0;stroke-opacity:1"
       sodipodi:type="arc" />
    <path
       sodipodi:type="arc"
       style="opacity:1;fill:#0006ff;fill-opacity:1;stroke:none;stroke-width:5;stroke-miterlimit:4;stroke-dasharray:none;stroke-dashoffset:0;stroke-opacity:1"
       id="path3368"
       sodipodi:cx="145.71428"
       sodipodi:cy="238.07646"
       sodipodi:rx="17.142857"
       sodipodi:ry="17.142857"
       d="m 162.85714,238.07646 a 17.142857,17.142857 0 0 1 -17.14286,17.14286 17.142857,17.142857 0 0 1 -17.14286,-17.14286 17.142857,17.142857 0 0 1 17.14286,-17.14285 17.142857,17.142857 0 0 1 17.14286,17.14285 z"
       transform="matrix(0.5833333,0,0,0.5833333,108.43656,393.73448)" />
    <path
       transform="matrix(0.5833333,0,0,0.5833333,163.99495,341.20655)"
       d="m 162.85714,238.07646 a 17.142857,17.142857 0 0 1 -17.14286,17.14286 17.142857,17.142857 0 0 1 -17.14286,-17.14286 17.142857,17.142857 0 0 1 17.14286,-17.14285 17.142857,17.142857 0 0 1 17.14286,17.14285 z"
       sodipodi:ry="17.142857"
       sodipodi:rx="17.142857"
       sodipodi:cy="238.07646"
       sodipodi:cx="145.71428"
       id="path3370"
       style="opacity:1;fill:#0006ff;fill-opacity:1;stroke:none;stroke-width:5;stroke-miterlimit:4;stroke-dasharray:none;stroke-dashoffset:0;stroke-opacity:1"
       sodipodi:type="arc" />
    <path
       sodipodi:type="arc"
       style="opacity:1;fill:#0006ff;fill-opacity:1;stroke:none;stroke-width:5;stroke-miterlimit:4;stroke-dasharray:none;stroke-dashoffset:0;stroke-opacity:1"
       id="path3372"
       sodipodi:cx="145.71428"
       sodipodi:cy="238.07646"
       sodipodi:rx="17.142857"
       sodipodi:ry="17.142857"
       d="m 162.85714,238.07646 a 17.142857,17.142857 0 0 1 -17.14286,17.14286 17.142857,17.142857 0 0 1 -17.14286,-17.14286 17.142857,17.142857 0 0 1 17.14286,-17.14285 17.142857,17.142857 0 0 1 17.14286,17.14285 z"
       transform="matrix(0.5833333,0,0,0.5833333,131.67007,303.83091)" />
    <path
       transform="matrix(0.5833333,0,0,0.5833333,91.263968,270.49588)"
       d="m 162.85714,238.07646 a 17.142857,17.142857 0 0 1 -17.14286,17.14286 17.142857,17.142857 0 0 1 -17.14286,-17.14286 17.142857,17.142857 0 0 1 17.14286,-17.14285 17.142857,17.142857 0 0 1 17.14286,17.14285 z"
       sodipodi:ry="17.142857"
       sodipodi:rx="17.142857"
       sodipodi:cy="238.07646"
       sodipodi:cx="145.71428"
       id="path3374"
       style="opacity:1;fill:#0006ff;fill-opacity:1;stroke:none;stroke-width:5;stroke-miterlimit:4;stroke-dasharray:none;stroke-dashoffset:0;stroke-opacity:1"
       sodipodi:type="arc" />
    <path
       sodipodi:type="arc"
       style="opacity:1;fill:#0006ff;fill-opacity:1;stroke:none;stroke-width:5;stroke-miterlimit:4;stroke-dasharray:none;stroke-dashoffset:0;stroke-opacity:1"
       id="path3376"
       sodipodi:cx="145.71428"
       sodipodi:cy="238.07646"
       sodipodi:rx="17.142857"
       sodipodi:ry="17.142857"
       d="m 162.85714,238.07646 a 17.142857,17.142857 0 0 1 -17.14286,17.14286 17.142857,17.142857 0 0 1 -17.14286,-17.14286 17.142857,17.142857 0 0 1 17.14286,-17.14285 17.142857,17.142857 0 0 1 17.14286,17.14285 z"
       transform="matrix(0.5833333,0,0,0.5833333,131.67007,232.11008)" />
    <path
       transform="matrix(0.5833333,0,0,0.5833333,72.07107,233.12023)"
       d="m 162.85714,238.07646 a 17.142857,17.142857 0 0 1 -17.14286,17.14286 17.142857,17.142857 0 0 1 -17.14286,-17.14286 17.142857,17.142857 0 0 1 17.14286,-17.14285 17.142857,17.142857 0 0 1 17.14286,17.14285 z"
       sodipodi:ry="17.142857"
       sodipodi:rx="17.142857"
       sodipodi:cy="238.07646"
       sodipodi:cx="145.71428"
       id="path3378"
       style="opacity:1;fill:#0006ff;fill-opacity:1;stroke:none;stroke-width:5;stroke-miterlimit:4;stroke-dasharray:none;stroke-dashoffset:0;stroke-opacity:1"
       sodipodi:type="arc" />
    <path
       sodipodi:type="arc"
       style="opacity:1;fill:#0006ff;fill-opacity:1;stroke:none;stroke-width:5;stroke-miterlimit:4;stroke-dasharray:none;stroke-dashoffset:0;stroke-opacity:1"
       id="path3380"
       sodipodi:cx="145.71428"
       sodipodi:cy="238.07646"
       sodipodi:rx="17.142857"
       sodipodi:ry="17.142857"
       d="m 162.85714,238.07646 a 17.142857,17.142857 0 0 1 -17.14286,17.14286 17.142857,17.142857 0 0 1 -17.14286,-17.14286 17.142857,17.142857 0 0 1 17.14286,-17.14285 17.142857,17.142857 0 0 1 17.14286,17.14285 z"
       transform="matrix(0.5833333,0,0,0.5833333,123.58885,190.69382)" />
    <path
       transform="matrix(0.5833333,0,0,0.5833333,87.223358,204.83596)"
       d="m 162.85714,238.07646 a 17.142857,17.142857 0 0 1 -17.14286,17.14286 17.142857,17.142857 0 0 1 -17.14286,-17.14286 17.142857,17.142857 0 0 1 17.14286,-17.14285 17.142857,17.142857 0 0 1 17.14286,17.14285 z"
       sodipodi:ry="17.142857"
       sodipodi:rx="17.142857"
       sodipodi:cy="238.07646"
       sodipodi:cx="145.71428"
       id="path3384"
       style="opacity:1;fill:#0006ff;fill-opacity:1;stroke:none;stroke-width:5;stroke-miterlimit:4;stroke-dasharray:none;stroke-dashoffset:0;stroke-opacity:1"
       sodipodi:type="arc" />
    <path
       sodipodi:type="arc"
       style="opacity:1;fill:#0006ff;fill-opacity:1;stroke:none;stroke-width:5;stroke-miterlimit:4;stroke-dasharray:none;stroke-dashoffset:0;stroke-opacity:1"
       id="path3386"
       sodipodi:cx="145.71428"
       sodipodi:cy="238.07646"
       sodipodi:rx="17.142857"
       sodipodi:ry="17.142857"
       d="m 162.85714,238.07646 a 17.142857,17.142857 0 0 1 -17.14286,17.14286 17.142857,17.142857 0 0 1 -17.14286,-17.14286 17.142857,17.142857 0 0 1 17.14286,-17.14285 17.142857,17.142857 0 0 1 17.14286,17.14285 z"
       transform="matrix(0.5833333,0,0,0.5833333,69.040612,169.48062)" />
    <path
       transform="matrix(0.5833333,0,0,0.5833333,116.51778,141.19635)"
       d="m 162.85714,238.07646 a 17.142857,17.142857 0 0 1 -17.14286,17.14286 17.142857,17.142857 0 0 1 -17.14286,-17.14286 17.142857,17.142857 0 0 1 17.14286,-17.14285 17.142857,17.142857 0 0 1 17.14286,17.14285 z"
       sodipodi:ry="17.142857"
       sodipodi:rx="17.142857"
       sodipodi:cy="238.07646"
       sodipodi:cx="145.71428"
       id="path3388"
       style="opacity:1;fill:#0006ff;fill-opacity:1;stroke:none;stroke-width:5;stroke-miterlimit:4;stroke-dasharray:none;stroke-dashoffset:0;stroke-opacity:1"
       sodipodi:type="arc" />
    <path
       sodipodi:type="arc"
       style="opacity:1;fill:#0006ff;fill-opacity:1;stroke:none;stroke-width:5;stroke-miterlimit:4;stroke-dasharray:none;stroke-dashoffset:0;stroke-opacity:1"
       id="path3390"
       sodipodi:cx="145.71428"
       sodipodi:cy="238.07646"
       sodipodi:rx="17.142857"
       sodipodi:ry="17.142857"
       d="m 162.85714,238.07646 a 17.142857,17.142857 0 0 1 -17.14286,17.14286 17.142857,17.142857 0 0 1 -17.14286,-17.14286 17.142857,17.142857 0 0 1 17.14286,-17.14285 17.142857,17.142857 0 0 1 17.14286,17.14285 z"
       transform="matrix(0.5833333,0,0,0.5833333,79.142136,134.12528)" />
    <path
       transform="matrix(0.5833333,0,0,0.5833333,76.111678,102.81055)"
       d="m 162.85714,238.07646 a 17.142857,17.142857 0 0 1 -17.14286,17.14286 17.142857,17.142857 0 0 1 -17.14286,-17.14286 17.142857,17.142857 0 0 1 17.14286,-17.14285 17.142857,17.142857 0 0 1 17.14286,17.14285 z"
       sodipodi:ry="17.142857"
       sodipodi:rx="17.142857"
       sodipodi:cy="238.07646"
       sodipodi:cx="145.71428"
       id="path3392"
       style="opacity:1;fill:#0006ff;fill-opacity:1;stroke:none;stroke-width:5;stroke-miterlimit:4;stroke-dasharray:none;stroke-dashoffset:0;stroke-opacity:1"
       sodipodi:type="arc" />
    <path
       sodipodi:type="arc"
       style="opacity:1;fill:#0006ff;fill-opacity:1;stroke:none;stroke-width:5;stroke-miterlimit:4;stroke-dasharray:none;stroke-dashoffset:0;stroke-opacity:1"
       id="path3394"
       sodipodi:cx="145.71428"
       sodipodi:cy="238.07646"
       sodipodi:rx="17.142857"
       sodipodi:ry="17.142857"
       d="m 162.85714,238.07646 a 17.142857,17.142857 0 0 1 -17.14286,17.14286 17.142857,17.142857 0 0 1 -17.14286,-17.14286 17.142857,17.142857 0 0 1 17.14286,-17.14285 17.142857,17.142857 0 0 1 17.14286,17.14285 z"
       transform="matrix(0.5833333,0,0,0.5833333,76.111678,73.516126)" />
    <path
       transform="matrix(0.5833333,0,0,0.5833333,4.3908473,255.34358)"
       d="m 162.85714,238.07646 a 17.142857,17.142857 0 0 1 -17.14286,17.14286 17.142857,17.142857 0 0 1 -17.14286,-17.14286 17.142857,17.142857 0 0 1 17.14286,-17.14285 17.142857,17.142857 0 0 1 17.14286,17.14285 z"
       sodipodi:ry="17.142857"
       sodipodi:rx="17.142857"
       sodipodi:cy="238.07646"
       sodipodi:cx="145.71428"
       id="path3396"
       style="opacity:1;fill:#0006ff;fill-opacity:1;stroke:none;stroke-width:5;stroke-miterlimit:4;stroke-dasharray:none;stroke-dashoffset:0;stroke-opacity:1"
       sodipodi:type="arc" />
    <path
       sodipodi:type="arc"
       style="opacity:1;fill:#0006ff;fill-opacity:1;stroke:none;stroke-width:5;stroke-miterlimit:4;stroke-dasharray:none;stroke-dashoffset:0;stroke-opacity:1"
       id="path3398"
       sodipodi:cx="145.71428"
       sodipodi:cy="238.07646"
       sodipodi:rx="17.142857"
       sodipodi:ry="17.142857"
       d="m 162.85714,238.07646 a 17.142857,17.142857 0 0 1 -17.14286,17.14286 17.142857,17.142857 0 0 1 -17.14286,-17.14286 17.142857,17.142857 0 0 1 17.14286,-17.14285 17.142857,17.142857 0 0 1 17.14286,17.14285 z"
       transform="matrix(0.5833333,0,0,0.5833333,49.847712,243.22175)" />
    <path
       transform="matrix(0.5833333,0,0,0.5833333,38.736034,268.47556)"
       d="m 162.85714,238.07646 a 17.142857,17.142857 0 0 1 -17.14286,17.14286 17.142857,17.142857 0 0 1 -17.14286,-17.14286 17.142857,17.142857 0 0 1 17.14286,-17.14285 17.142857,17.142857 0 0 1 17.14286,17.14285 z"
       sodipodi:ry="17.142857"
       sodipodi:rx="17.142857"
       sodipodi:cy="238.07646"
       sodipodi:cx="145.71428"
       id="path3400"
       style="opacity:1;fill:#0006ff;fill-opacity:1;stroke:none;stroke-width:5;stroke-miterlimit:4;stroke-dasharray:none;stroke-dashoffset:0;stroke-opacity:1"
       sodipodi:type="arc" />
    <path
       sodipodi:type="arc"
       style="opacity:1;fill:#0006ff;fill-opacity:1;stroke:none;stroke-width:5;stroke-miterlimit:4;stroke-dasharray:none;stroke-dashoffset:0;stroke-opacity:1"
       id="path3402"
       sodipodi:cx="145.71428"
       sodipodi:cy="238.07646"
       sodipodi:rx="17.142857"
       sodipodi:ry="17.142857"
       d="m 162.85714,238.07646 a 17.142857,17.142857 0 0 1 -17.14286,17.14286 17.142857,17.142857 0 0 1 -17.14286,-17.14286 17.142857,17.142857 0 0 1 17.14286,-17.14285 17.142857,17.142857 0 0 1 17.14286,17.14285 z"
       transform="matrix(0.5833333,0,0,0.5833333,11.461915,372.52127)" />
    <path
       transform="matrix(0.5833333,0,0,0.5833333,106.41625,444.2421)"
       d="m 162.85714,238.07646 a 17.142857,17.142857 0 0 1 -17.14286,17.14286 17.142857,17.142857 0 0 1 -17.14286,-17.14286 17.142857,17.142857 0 0 1 17.14286,-17.14285 17.142857,17.142857 0 0 1 17.14286,17.14285 z"
       sodipodi:ry="17.142857"
       sodipodi:rx="17.142857"
       sodipodi:cy="238.07646"
       sodipodi:cx="145.71428"
       id="path3404"
       style="opacity:1;fill:#0006ff;fill-opacity:1;stroke:none;stroke-width:5;stroke-miterlimit:4;stroke-dasharray:none;stroke-dashoffset:0;stroke-opacity:1"
       sodipodi:type="arc" />
    <path
       sodipodi:type="arc"
       style="opacity:1;fill:#0006ff;fill-opacity:1;stroke:none;stroke-width:5;stroke-miterlimit:4;stroke-dasharray:none;stroke-dashoffset:0;stroke-opacity:1"
       id="path3406"
       sodipodi:cx="145.71428"
       sodipodi:cy="238.07646"
       sodipodi:rx="17.142857"
       sodipodi:ry="17.142857"
       d="m 162.85714,238.07646 a 17.142857,17.142857 0 0 1 -17.14286,17.14286 17.142857,17.142857 0 0 1 -17.14286,-17.14286 17.142857,17.142857 0 0 1 17.14286,-17.14285 17.142857,17.142857 0 0 1 17.14286,17.14285 z"
       transform="matrix(0.5833333,0,0,0.5833333,183.18784,540.20659)" />
    <path
       transform="matrix(0.5833333,0,0,0.5833333,283.19294,550.30812)"
       d="m 162.85714,238.07646 a 17.142857,17.142857 0 0 1 -17.14286,17.14286 17.142857,17.142857 0 0 1 -17.14286,-17.14286 17.142857,17.142857 0 0 1 17.14286,-17.14285 17.142857,17.142857 0 0 1 17.14286,17.14285 z"
       sodipodi:ry="17.142857"
       sodipodi:rx="17.142857"
       sodipodi:cy="238.07646"
       sodipodi:cx="145.71428"
       id="path3408"
       style="opacity:1;fill:#0006ff;fill-opacity:1;stroke:none;stroke-width:5;stroke-miterlimit:4;stroke-dasharray:none;stroke-dashoffset:0;stroke-opacity:1"
       sodipodi:type="arc" />
    <path
       sodipodi:type="arc"
       style="opacity:1;fill:#0006ff;fill-opacity:1;stroke:none;stroke-width:5;stroke-miterlimit:4;stroke-dasharray:none;stroke-dashoffset:0;stroke-opacity:1"
       id="path3410"
       sodipodi:cx="145.71428"
       sodipodi:cy="238.07646"
       sodipodi:rx="17.142857"
       sodipodi:ry="17.142857"
       d="m 162.85714,238.07646 a 17.142857,17.142857 0 0 1 -17.14286,17.14286 17.142857,17.142857 0 0 1 -17.14286,-17.14286 17.142857,17.142857 0 0 1 17.14286,-17.14285 17.142857,17.142857 0 0 1 17.14286,17.14285 z"
       transform="matrix(0.5833333,0,0,0.5833333,473.10162,375.55173)" />
    <path
       transform="matrix(0.5833333,0,0,0.5833333,383.19804,382.6228)"
       d="m 162.85714,238.07646 a 17.142857,17.142857 0 0 1 -17.14286,17.14286 17.142857,17.142857 0 0 1 -17.14286,-17.14286 17.142857,17.142857 0 0 1 17.14286,-17.14285 17.142857,17.142857 0 0 1 17.14286,17.14285 z"
       sodipodi:ry="17.142857"
       sodipodi:rx="17.142857"
       sodipodi:cy="238.07646"
       sodipodi:cx="145.71428"
       id="path3412"
       style="opacity:1;fill:#0006ff;fill-opacity:1;stroke:none;stroke-width:5;stroke-miterlimit:4;stroke-dasharray:none;stroke-dashoffset:0;stroke-opacity:1"
       sodipodi:type="arc" />
    <path
       sodipodi:type="arc"
       style="opacity:1;fill:#0006ff;fill-opacity:1;stroke:none;stroke-width:5;stroke-miterlimit:4;stroke-dasharray:none;stroke-dashoffset:0;stroke-opacity:1"
       id="path3414"
       sodipodi:cx="145.71428"
       sodipodi:cy="238.07646"
       sodipodi:rx="17.142857"
       sodipodi:ry="17.142857"
       d="m 162.85714,238.07646 a 17.142857,17.142857 0 0 1 -17.14286,17.14286 17.142857,17.142857 0 0 1 -17.14286,-17.14286 17.142857,17.142857 0 0 1 17.14286,-17.14285 17.142857,17.142857 0 0 1 17.14286,17.14285 z"
       transform="matrix(0.5833333,0,0,0.5833333,280.16248,397.77509)" />
    <path
       transform="matrix(0.5833333,0,0,0.5833333,234.70562,421.0086)"
       d="m 162.85714,238.07646 a 17.142857,17.142857 0 0 1 -17.14286,17.14286 17.142857,17.142857 0 0 1 -17.14286,-17.14286 17.142857,17.142857 0 0 1 17.14286,-17.14285 17.142857,17.142857 0 0 1 17.14286,17.14285 z"
       sodipodi:ry="17.142857"
       sodipodi:rx="17.142857"
       sodipodi:cy="238.07646"
       sodipodi:cx="145.71428"
       id="path3416"
       style="opacity:1;fill:#0006ff;fill-opacity:1;stroke:none;stroke-width:5;stroke-miterlimit:4;stroke-dasharray:none;stroke-dashoffset:0;stroke-opacity:1"
       sodipodi:type="arc" />
    <path
       sodipodi:type="arc"
       style="opacity:1;fill:#0006ff;fill-opacity:1;stroke:none;stroke-width:5;stroke-miterlimit:4;stroke-dasharray:none;stroke-dashoffset:0;stroke-opacity:1"
       id="path3418"
       sodipodi:cx="145.71428"
       sodipodi:cy="238.07646"
       sodipodi:rx="17.142857"
       sodipodi:ry="17.142857"
       d="m 162.85714,238.07646 a 17.142857,17.142857 0 0 1 -17.14286,17.14286 17.142857,17.142857 0 0 1 -17.14286,-17.14286 17.142857,17.142857 0 0 1 17.14286,-17.14285 17.142857,17.142857 0 0 1 17.14286,17.14285 z"
       transform="matrix(0.5833333,0,0,0.5833333,259.95943,458.38424)" />
    <path
       transform="matrix(0.5833333,0,0,0.5833333,267.0305,313.93243)"
       d="m 162.85714,238.07646 a 17.142857,17.142857 0 0 1 -17.14286,17.14286 17.142857,17.142857 0 0 1 -17.14286,-17.14286 17.142857,17.142857 0 0 1 17.14286,-17.14285 17.142857,17.142857 0 0 1 17.14286,17.14285 z"
       sodipodi:ry="17.142857"
       sodipodi:rx="17.142857"
       sodipodi:cy="238.07646"
       sodipodi:cx="145.71428"
       id="path3420"
       style="opacity:1;fill:#0006ff;fill-opacity:1;stroke:none;stroke-width:5;stroke-miterlimit:4;stroke-dasharray:none;stroke-dashoffset:0;stroke-opacity:1"
       sodipodi:type="arc" />
    <path
       sodipodi:type="arc"
       style="opacity:1;fill:#0006ff;fill-opacity:1;stroke:none;stroke-width:5;stroke-miterlimit:4;stroke-dasharray:none;stroke-dashoffset:0;stroke-opacity:1"
       id="path3422"
       sodipodi:cx="145.71428"
       sodipodi:cy="238.07646"
       sodipodi:rx="17.142857"
       sodipodi:ry="17.142857"
       d="m 162.85714,238.07646 a 17.142857,17.142857 0 0 1 -17.14286,17.14286 17.142857,17.142857 0 0 1 -17.14286,-17.14286 17.142857,17.142857 0 0 1 17.14286,-17.14285 17.142857,17.142857 0 0 1 17.14286,17.14285 z"
       transform="matrix(0.5833333,0,0,0.5833333,179.14723,312.92228)" />
    <path
       transform="matrix(0.5833333,0,0,0.5833333,128.6396,336.15579)"
       d="m 162.85714,238.07646 a 17.142857,17.142857 0 0 1 -17.14286,17.14286 17.142857,17.142857 0 0 1 -17.14286,-17.14286 17.142857,17.142857 0 0 1 17.14286,-17.14285 17.142857,17.142857 0 0 1 17.14286,17.14285 z"
       sodipodi:ry="17.142857"
       sodipodi:rx="17.142857"
       sodipodi:cy="238.07646"
       sodipodi:cx="145.71428"
       id="path3424"
       style="opacity:1;fill:#0006ff;fill-opacity:1;stroke:none;stroke-width:5;stroke-miterlimit:4;stroke-dasharray:none;stroke-dashoffset:0;stroke-opacity:1"
       sodipodi:type="arc" />
    <path
       sodipodi:type="arc"
       style="opacity:1;fill:#0006ff;fill-opacity:1;stroke:none;stroke-width:5;stroke-miterlimit:4;stroke-dasharray:none;stroke-dashoffset:0;stroke-opacity:1"
       id="path3426"
       sodipodi:cx="145.71428"
       sodipodi:cy="238.07646"
       sodipodi:rx="17.142857"
       sodipodi:ry="17.142857"
       d="m 162.85714,238.07646 a 17.142857,17.142857 0 0 1 -17.14286,17.14286 17.142857,17.142857 0 0 1 -17.14286,-17.14286 17.142857,17.142857 0 0 1 17.14286,-17.14285 17.142857,17.142857 0 0 1 17.14286,17.14285 z"
       transform="matrix(0.5833333,0,0,0.5833333,98.335024,26.038959)" />
    <path
       transform="matrix(0.5833333,0,0,0.5833333,122.57869,77.556739)"
       d="m 162.85714,238.07646 a 17.142857,17.142857 0 0 1 -17.14286,17.14286 17.142857,17.142857 0 0 1 -17.14286,-17.14286 17.142857,17.142857 0 0 1 17.14286,-17.14285 17.142857,17.142857 0 0 1 17.14286,17.14285 z"
       sodipodi:ry="17.142857"
       sodipodi:rx="17.142857"
       sodipodi:cy="238.07646"
       sodipodi:cx="145.71428"
       id="path3428"
       style="opacity:1;fill:#0006ff;fill-opacity:1;stroke:none;stroke-width:5;stroke-miterlimit:4;stroke-dasharray:none;stroke-dashoffset:0;stroke-opacity:1"
       sodipodi:type="arc" />
    <path
       sodipodi:type="arc"
       style="opacity:1;fill:#0006ff;fill-opacity:1;stroke:none;stroke-width:5;stroke-miterlimit:4;stroke-dasharray:none;stroke-dashoffset:0;stroke-opacity:1"
       id="path3430"
       sodipodi:cx="145.71428"
       sodipodi:cy="238.07646"
       sodipodi:rx="17.142857"
       sodipodi:ry="17.142857"
       d="m 162.85714,238.07646 a 17.142857,17.142857 0 0 1 -17.14286,17.14286 17.142857,17.142857 0 0 1 -17.14286,-17.14286 17.142857,17.142857 0 0 1 17.14286,-17.14285 17.142857,17.142857 0 0 1 17.14286,17.14285 z"
       transform="matrix(0.5833333,0,0,0.5833333,27.624351,86.648112)" />
    <path
       transform="matrix(0.5833333,0,0,0.5833333,417.54323,535.15584)"
       d="m 162.85714,238.07646 a 17.142857,17.142857 0 0 1 -17.14286,17.14286 17.142857,17.142857 0 0 1 -17.14286,-17.14286 17.142857,17.142857 0 0 1 17.14286,-17.14285 17.142857,17.142857 0 0 1 17.14286,17.14285 z"
       sodipodi:ry="17.142857"
       sodipodi:rx="17.142857"
       sodipodi:cy="238.07646"
       sodipodi:cx="145.71428"
       id="path3432"
       style="opacity:1;fill:#0006ff;fill-opacity:1;stroke:none;stroke-width:5;stroke-miterlimit:4;stroke-dasharray:none;stroke-dashoffset:0;stroke-opacity:1"
       sodipodi:type="arc" />
    <path
       style="fill:none;stroke:#79672b;stroke-width:8;stroke-linecap:butt;stroke-linejoin:miter;stroke-miterlimit:4;stroke-dasharray:16, 8;stroke-opacity:1;stroke-dashoffset:0"
       d="M 5.9278496,178.66913 593.83662,786.78096"
       id="path5335"
       inkscape:connector-curvature="0" />
  </g>
</svg>
